[2/14/2014 11:38 AM] Udder Started..... Waiting to be milked.
[2/14/2014 11:38 AM] Starting to Milk info for cssh2728
[2/14/2014 11:39 AM] Search on Base part number : cssh2728 resulted in 21 records returned
[2/14/2014 11:39 AM] Writing CSV Headers
[2/14/2014 11:39 AM] Processing part 0 of 21
[2/14/2014 11:39 AM] ---->Part Detected as Tape & Real
[2/14/2014 11:39 AM] Processing part 1 of 21
[2/14/2014 11:39 AM] ---->Part Detected as Cut Tape
[2/14/2014 11:39 AM] Processing part 2 of 21
[2/14/2014 11:39 AM] ---->Part Detected as [Digi-Reel®]   Discarding.....
[2/14/2014 11:39 AM] Processing part 3 of 21
[2/14/2014 11:39 AM] ---->Part Detected as Tape & Real
[2/14/2014 11:39 AM] Processing part 4 of 21
[2/14/2014 11:39 AM] ---->Part Detected as Cut Tape
[2/14/2014 11:39 AM] Processing part 5 of 21
[2/14/2014 11:39 AM] ---->Part Detected as [Digi-Reel®]   Discarding.....
[2/14/2014 11:39 AM] Processing part 6 of 21
[2/14/2014 11:39 AM] ---->Part Detected as Tape & Real
[2/14/2014 11:39 AM] Processing part 7 of 21
[2/14/2014 11:39 AM] ---->Part Detected as Cut Tape
[2/14/2014 11:39 AM] Processing part 8 of 21
[2/14/2014 11:39 AM] ---->Part Detected as [Digi-Reel®]   Discarding.....
[2/14/2014 11:39 AM] Processing part 9 of 21
[2/14/2014 11:39 AM] ---->Part Detected as Tape & Real
[2/14/2014 11:39 AM] Processing part 10 of 21
[2/14/2014 11:39 AM] ---->Part Detected as Cut Tape
[2/14/2014 11:39 AM] Processing part 11 of 21
[2/14/2014 11:39 AM] ---->Part Detected as [Digi-Reel®]   Discarding.....
[2/14/2014 11:39 AM] Processing part 12 of 21
[2/14/2014 11:39 AM] ---->Part Detected as Tape & Real
[2/14/2014 11:39 AM] Processing part 13 of 21
[2/14/2014 11:39 AM] ---->Part Detected as Cut Tape
[2/14/2014 11:39 AM] Processing part 14 of 21
[2/14/2014 11:39 AM] ---->Part Detected as [Digi-Reel®]   Discarding.....
[2/14/2014 11:39 AM] Processing part 15 of 21
[2/14/2014 11:39 AM] ---->Part Detected as Tape & Real
[2/14/2014 11:39 AM] Processing part 16 of 21
[2/14/2014 11:39 AM] ---->Part Detected as Cut Tape
[2/14/2014 11:39 AM] Processing part 17 of 21
[2/14/2014 11:39 AM] ---->Part Detected as [Digi-Reel®]   Discarding.....
[2/14/2014 11:39 AM] Processing part 18 of 21
[2/14/2014 11:39 AM] ---->Part Detected as Tape & Real
[2/14/2014 11:39 AM] Processing part 19 of 21
[2/14/2014 11:39 AM] ---->Part Detected as Cut Tape
[2/14/2014 11:39 AM] Processing part 20 of 21
[2/14/2014 11:39 AM] ---->Part Detected as [Digi-Reel®]   Discarding.....
[2/14/2014 11:39 AM] Finished Parsing Records
[2/14/2014 11:39 AM] Udder is now dry!
[2/14/2014 11:40 AM] Starting to Milk info for css .and. resistors
[2/14/2014 11:40 AM] Search on Base part number : css .and. resistors resulted in 86 records returned
[2/14/2014 11:40 AM] Writing CSV Headers
[2/14/2014 11:40 AM] Processing part 0 of 86
[2/14/2014 11:40 AM] ---->Part Detected as Tape & Real
[2/14/2014 11:40 AM] Processing part 1 of 86
[2/14/2014 11:40 AM] ---->Part Detected as Cut Tape
[2/14/2014 11:40 AM] Processing part 2 of 86
[2/14/2014 11:40 AM] ---->Part Detected as [Digi-Reel®]   Discarding.....
[2/14/2014 11:40 AM] Processing part 3 of 86
[2/14/2014 11:40 AM] ---->Part Detected as Tape & Real
[2/14/2014 11:40 AM] Processing part 4 of 86
[2/14/2014 11:40 AM] ---->Part Detected as Cut Tape
[2/14/2014 11:40 AM] Processing part 5 of 86
[2/14/2014 11:40 AM] ---->Part Detected as [Digi-Reel®]   Discarding.....
[2/14/2014 11:40 AM] Processing part 6 of 86
[2/14/2014 11:40 AM] ---->Part Detected as Tape & Real
[2/14/2014 11:40 AM] Processing part 7 of 86
[2/14/2014 11:40 AM] ---->Part Detected as Cut Tape
[2/14/2014 11:40 AM] Processing part 8 of 86
[2/14/2014 11:40 AM] ---->Part Detected as [Digi-Reel®]   Discarding.....
[2/14/2014 11:40 AM] Processing part 9 of 86
[2/14/2014 11:40 AM] ---->Part Detected as Tape & Real
[2/14/2014 11:40 AM] Processing part 10 of 86
[2/14/2014 11:40 AM] ---->Part Detected as Cut Tape
[2/14/2014 11:40 AM] Processing part 11 of 86
[2/14/2014 11:40 AM] ---->Part Detected as [Digi-Reel®]   Discarding.....
[2/14/2014 11:40 AM] Processing part 12 of 86
[2/14/2014 11:40 AM] ---->Part Detected as Tape & Real
[2/14/2014 11:40 AM] Processing part 13 of 86
[2/14/2014 11:40 AM] ---->Part Detected as Cut Tape
[2/14/2014 11:40 AM] Processing part 14 of 86
[2/14/2014 11:40 AM] ---->Part Detected as [Digi-Reel®]   Discarding.....
[2/14/2014 11:40 AM] Processing part 15 of 86
[2/14/2014 11:40 AM] ---->Part Detected as Tape & Real
[2/14/2014 11:40 AM] Processing part 16 of 86
[2/14/2014 11:40 AM] ---->Part Detected as Cut Tape
[2/14/2014 11:40 AM] Processing part 17 of 86
[2/14/2014 11:40 AM] ---->Part Detected as [Digi-Reel®]   Discarding.....
[2/14/2014 11:40 AM] Processing part 18 of 86
[2/14/2014 11:40 AM] ---->Part Detected as Tape & Real
[2/14/2014 11:40 AM] Processing part 19 of 86
[2/14/2014 11:40 AM] ---->Part Detected as Cut Tape
[2/14/2014 11:40 AM] Processing part 20 of 86
[2/14/2014 11:40 AM] ---->Part Detected as [Digi-Reel®]   Discarding.....
[2/14/2014 11:40 AM] Processing part 21 of 86
[2/14/2014 11:40 AM] ---->Part Detected as Tape & Real
[2/14/2014 11:40 AM] Processing part 22 of 86
[2/14/2014 11:40 AM] ---->Part Detected as Cut Tape
[2/14/2014 11:40 AM] Processing part 23 of 86
[2/14/2014 11:40 AM] ---->Part Detected as [Digi-Reel®]   Discarding.....
[2/14/2014 11:40 AM] Processing part 24 of 86
[2/14/2014 11:40 AM] ---->Part Detected as Tape & Real
[2/14/2014 11:40 AM] Processing part 25 of 86
[2/14/2014 11:40 AM] ---->Part Detected as Cut Tape
[2/14/2014 11:40 AM] Processing part 26 of 86
[2/14/2014 11:40 AM] ---->Part Detected as [Digi-Reel®]   Discarding.....
[2/14/2014 11:40 AM] Processing part 27 of 86
[2/14/2014 11:40 AM] ---->Part Detected as Tape & Real
[2/14/2014 11:40 AM] Processing part 28 of 86
[2/14/2014 11:40 AM] ---->Part Detected as Cut Tape
[2/14/2014 11:40 AM] Processing part 29 of 86
[2/14/2014 11:40 AM] ---->Part Detected as [Digi-Reel®]   Discarding.....
[2/14/2014 11:40 AM] Processing part 30 of 86
[2/14/2014 11:40 AM] ---->Part Detected as Tape & Real
[2/14/2014 11:40 AM] Processing part 31 of 86
[2/14/2014 11:40 AM] ---->Part Detected as Cut Tape
[2/14/2014 11:40 AM] Processing part 32 of 86
[2/14/2014 11:40 AM] ---->Part Detected as [Digi-Reel®]   Discarding.....
[2/14/2014 11:40 AM] Processing part 33 of 86
[2/14/2014 11:40 AM] ---->Part Detected as Tape & Real
[2/14/2014 11:40 AM] Processing part 34 of 86
[2/14/2014 11:40 AM] ---->Part Detected as Cut Tape
[2/14/2014 11:40 AM] Processing part 35 of 86
[2/14/2014 11:40 AM] ---->Part Detected as [Digi-Reel®]   Discarding.....
[2/14/2014 11:40 AM] Processing part 36 of 86
[2/14/2014 11:40 AM] ---->Part Detected as Tape & Real
[2/14/2014 11:40 AM] Processing part 37 of 86
[2/14/2014 11:40 AM] ---->Part Detected as Cut Tape
[2/14/2014 11:40 AM] Processing part 38 of 86
[2/14/2014 11:40 AM] ---->Part Detected as [Digi-Reel®]   Discarding.....
[2/14/2014 11:40 AM] Processing part 39 of 86
[2/14/2014 11:40 AM] ---->Part Detected as Tape & Real
[2/14/2014 11:40 AM] Processing part 40 of 86
[2/14/2014 11:40 AM] ---->Part Detected as Cut Tape
[2/14/2014 11:40 AM] Processing part 41 of 86
[2/14/2014 11:40 AM] ---->Part Detected as [Digi-Reel®]   Discarding.....
[2/14/2014 11:40 AM] Processing part 42 of 86
[2/14/2014 11:40 AM] ---->Part Detected as Tape & Real
[2/14/2014 11:40 AM] Processing part 43 of 86
[2/14/2014 11:40 AM] ---->Part Detected as Cut Tape
[2/14/2014 11:40 AM] Processing part 44 of 86
[2/14/2014 11:40 AM] ---->Part Detected as [Digi-Reel®]   Discarding.....
[2/14/2014 11:40 AM] Processing part 45 of 86
[2/14/2014 11:40 AM] ---->Part Detected as Tape & Real
[2/14/2014 11:40 AM] Processing part 46 of 86
[2/14/2014 11:40 AM] ---->Part Detected as Cut Tape
[2/14/2014 11:40 AM] Processing part 47 of 86
[2/14/2014 11:40 AM] ---->Part Detected as [Digi-Reel®]   Discarding.....
[2/14/2014 11:40 AM] Processing part 48 of 86
[2/14/2014 11:40 AM] ---->Part Detected as Tape & Real
[2/14/2014 11:40 AM] Processing part 49 of 86
[2/14/2014 11:40 AM] ---->Part Detected as Cut Tape
[2/14/2014 11:40 AM] Processing part 50 of 86
[2/14/2014 11:40 AM] ---->Part Detected as [Digi-Reel®]   Discarding.....
[2/14/2014 11:40 AM] Processing part 51 of 86
[2/14/2014 11:40 AM] ---->Part Detected as Tape & Real
[2/14/2014 11:40 AM] Processing part 52 of 86
[2/14/2014 11:40 AM] ---->Part Detected as Cut Tape
[2/14/2014 11:40 AM] Processing part 53 of 86
[2/14/2014 11:40 AM] ---->Part Detected as [Digi-Reel®]   Discarding.....
[2/14/2014 11:40 AM] Processing part 54 of 86
[2/14/2014 11:40 AM] ---->Part Detected as Tape & Real
[2/14/2014 11:40 AM] Processing part 55 of 86
[2/14/2014 11:40 AM] ---->Part Detected as Cut Tape
[2/14/2014 11:40 AM] Processing part 56 of 86
[2/14/2014 11:40 AM] ---->Part Detected as [Digi-Reel®]   Discarding.....
[2/14/2014 11:40 AM] Processing part 57 of 86
[2/14/2014 11:40 AM] ---->Part Detected as Tape & Real
[2/14/2014 11:40 AM] Processing part 58 of 86
[2/14/2014 11:40 AM] ---->Part Detected as Cut Tape
[2/14/2014 11:40 AM] Processing part 59 of 86
[2/14/2014 11:40 AM] ---->Part Detected as [Digi-Reel®]   Discarding.....
[2/14/2014 11:40 AM] Processing part 60 of 86
[2/14/2014 11:40 AM] ---->Part Detected as Tape & Real
[2/14/2014 11:40 AM] Processing part 61 of 86
[2/14/2014 11:40 AM] ---->Part Detected as Cut Tape
[2/14/2014 11:40 AM] Processing part 62 of 86
[2/14/2014 11:40 AM] ---->Part Detected as [Digi-Reel®]   Discarding.....
[2/14/2014 11:40 AM] Processing part 63 of 86
[2/14/2014 11:40 AM] ---->Part Detected as Tape & Real
[2/14/2014 11:40 AM] Processing part 64 of 86
[2/14/2014 11:40 AM] ---->Part Detected as Cut Tape
[2/14/2014 11:40 AM] Processing part 65 of 86
[2/14/2014 11:40 AM] ---->Part Detected as [Digi-Reel®]   Discarding.....
[2/14/2014 11:40 AM] Processing part 66 of 86
[2/14/2014 11:40 AM] ---->Part Detected as Tape & Real
[2/14/2014 11:40 AM] Processing part 67 of 86
[2/14/2014 11:40 AM] ---->Part Detected as Cut Tape
[2/14/2014 11:40 AM] Processing part 68 of 86
[2/14/2014 11:40 AM] ---->Part Detected as [Digi-Reel®]   Discarding.....
[2/14/2014 11:40 AM] Processing part 69 of 86
[2/14/2014 11:40 AM] ---->Part Detected as Tape & Real
[2/14/2014 11:40 AM] Processing part 70 of 86
[2/14/2014 11:40 AM] ---->Part Detected as Tape & Real
[2/14/2014 11:40 AM] Processing part 71 of 86
[2/14/2014 11:40 AM] ---->Part Detected as Tape & Real
[2/14/2014 11:40 AM] Processing part 72 of 86
[2/14/2014 11:40 AM] ---->Part Detected as Tape & Real
[2/14/2014 11:40 AM] Processing part 73 of 86
[2/14/2014 11:40 AM] ---->Part Detected as Tape & Real
[2/14/2014 11:40 AM] Processing part 74 of 86
[2/14/2014 11:40 AM] ---->Part Detected as Tape & Real
[2/14/2014 11:40 AM] Processing part 75 of 86
[2/14/2014 11:40 AM] ---->Part Detected as Tape & Real
[2/14/2014 11:40 AM] Processing part 76 of 86
[2/14/2014 11:40 AM] ---->Part Detected as Tape & Real
[2/14/2014 11:40 AM] Processing part 77 of 86
[2/14/2014 11:40 AM] ---->Part Detected as Tape & Real
[2/14/2014 11:40 AM] Processing part 78 of 86
[2/14/2014 11:40 AM] ---->Part Detected as Tape & Real
[2/14/2014 11:40 AM] Processing part 79 of 86
[2/14/2014 11:40 AM] ---->Part Detected as Tape & Real
[2/14/2014 11:40 AM] Processing part 80 of 86
[2/14/2014 11:40 AM] ---->Part Detected as Tape & Real
[2/14/2014 11:40 AM] Processing part 81 of 86
[2/14/2014 11:40 AM] ---->Part Detected as Tape & Real
[2/14/2014 11:40 AM] Processing part 82 of 86
[2/14/2014 11:40 AM] ---->Part Detected as Tape & Real
[2/14/2014 11:40 AM] Processing part 83 of 86
[2/14/2014 11:40 AM] ---->Part Detected as Tape & Real
[2/14/2014 11:40 AM] Processing part 84 of 86
[2/14/2014 11:40 AM] ---->Part Detected as Tape & Real
[2/14/2014 11:40 AM] Processing part 85 of 86
[2/14/2014 11:40 AM] ---->Part Detected as Tape & Real
[2/14/2014 11:40 AM] Finished Parsing Records
[2/14/2014 11:40 AM] Udder is now dry!
