ISO-10303-21;
HEADER;
/* Generated by software containing ST-Developer
 * from STEP Tools, Inc. (www.steptools.com) 
 */

FILE_DESCRIPTION(
/* description */ ('Alibre Inc.'),
/* implementation_level */ '2;1');

FILE_NAME(
/* name */ 'export1',
/* time_stamp */ '2011-07-01T06:41:00-04:00',
/* author */ (''),
/* organization */ (''),
/* preprocessor_version */ 'ST-DEVELOPER v12',
/* originating_system */ 'Alibre',
/* authorisation */ '');

FILE_SCHEMA (('AUTOMOTIVE_DESIGN'));
ENDSEC;

DATA;
#10=CONTEXT_DEPENDENT_SHAPE_REPRESENTATION(#19,#77);
#11=CONTEXT_DEPENDENT_SHAPE_REPRESENTATION(#20,#78);
#12=CONTEXT_DEPENDENT_SHAPE_REPRESENTATION(#21,#79);
#13=NEXT_ASSEMBLY_USAGE_OCCURRENCE('NAUO_ID9','NAUO_NAME9',$,#82,#80,$);
#14=NEXT_ASSEMBLY_USAGE_OCCURRENCE('NAUO_ID19','NAUO_NAME19',$,#82,#81,$);
#15=NEXT_ASSEMBLY_USAGE_OCCURRENCE('NAUO_ID29','NAUO_NAME29',$,#82,#81,$);
#16=ITEM_DEFINED_TRANSFORMATION('ITD_NAME0',$,#823,#822);
#17=ITEM_DEFINED_TRANSFORMATION('ITD_NAME10',$,#825,#824);
#18=ITEM_DEFINED_TRANSFORMATION('ITD_NAME20',$,#827,#826);
#19=(
REPRESENTATION_RELATIONSHIP('Body-Yellow',$,#97,#99)
REPRESENTATION_RELATIONSHIP_WITH_TRANSFORMATION(#16)
SHAPE_REPRESENTATION_RELATIONSHIP()
);
#20=(
REPRESENTATION_RELATIONSHIP('Pin',$,#98,#99)
REPRESENTATION_RELATIONSHIP_WITH_TRANSFORMATION(#17)
SHAPE_REPRESENTATION_RELATIONSHIP()
);
#21=(
REPRESENTATION_RELATIONSHIP('Pin',$,#98,#99)
REPRESENTATION_RELATIONSHIP_WITH_TRANSFORMATION(#18)
SHAPE_REPRESENTATION_RELATIONSHIP()
);
#22=STYLED_ITEM('NAME_0',(#64),#1214);
#23=STYLED_ITEM('NAME_0',(#65),#740);
#24=STYLED_ITEM('NAME_0',(#66),#1215);
#25=STYLED_ITEM('NAME_0',(#67),#764);
#26=STYLED_ITEM('NAME_0',(#67),#765);
#27=STYLED_ITEM('NAME_0',(#67),#766);
#28=STYLED_ITEM('NAME_0',(#67),#767);
#29=STYLED_ITEM('NAME_0',(#67),#768);
#30=STYLED_ITEM('NAME_0',(#67),#769);
#31=STYLED_ITEM('NAME_0',(#67),#770);
#32=STYLED_ITEM('NAME_0',(#67),#771);
#33=STYLED_ITEM('NAME_0',(#67),#772);
#34=STYLED_ITEM('NAME_0',(#67),#773);
#35=STYLED_ITEM('NAME_0',(#67),#774);
#36=STYLED_ITEM('NAME_0',(#67),#775);
#37=STYLED_ITEM('NAME_0',(#67),#776);
#38=STYLED_ITEM('NAME_0',(#67),#777);
#39=MECHANICAL_DESIGN_GEOMETRIC_PRESENTATION_REPRESENTATION('NAME_0',(#22,
#23,#24,#25,#26,#27,#28,#29,#30,#31,#32,#33,#34,#35,#36,#37,#38),#114);
#40=COLOUR_RGB('',0.882352941176471,0.882352941176471,0.882352941176471);
#41=COLOUR_RGB('',0.917647058823529,0.917647058823529,0.);
#42=COLOUR_RGB('',0.882352941176471,0.882352941176471,0.882352941176471);
#43=COLOUR_RGB('',0.501960784313725,0.501960784313725,0.501960784313725);
#44=FILL_AREA_STYLE_COLOUR('NAME_0',#40);
#45=FILL_AREA_STYLE_COLOUR('NAME_0',#41);
#46=FILL_AREA_STYLE_COLOUR('NAME_0',#42);
#47=FILL_AREA_STYLE_COLOUR('NAME_0',#43);
#48=FILL_AREA_STYLE('NAME_0',(#44));
#49=FILL_AREA_STYLE('NAME_0',(#45));
#50=FILL_AREA_STYLE('NAME_0',(#46));
#51=FILL_AREA_STYLE('NAME_0',(#47));
#52=SURFACE_STYLE_FILL_AREA(#48);
#53=SURFACE_STYLE_FILL_AREA(#49);
#54=SURFACE_STYLE_FILL_AREA(#50);
#55=SURFACE_STYLE_FILL_AREA(#51);
#56=SURFACE_SIDE_STYLE('NAME_0',(#52));
#57=SURFACE_SIDE_STYLE('NAME_0',(#53));
#58=SURFACE_SIDE_STYLE('NAME_0',(#54));
#59=SURFACE_SIDE_STYLE('NAME_0',(#55));
#60=SURFACE_STYLE_USAGE(.POSITIVE.,#56);
#61=SURFACE_STYLE_USAGE(.POSITIVE.,#57);
#62=SURFACE_STYLE_USAGE(.POSITIVE.,#58);
#63=SURFACE_STYLE_USAGE(.POSITIVE.,#59);
#64=PRESENTATION_STYLE_ASSIGNMENT((#60));
#65=PRESENTATION_STYLE_ASSIGNMENT((#61));
#66=PRESENTATION_STYLE_ASSIGNMENT((#62));
#67=PRESENTATION_STYLE_ASSIGNMENT((#63));
#68=PRODUCT_DEFINITION_CONTEXT('part definition',#90,'design');
#69=PRODUCT_DEFINITION_CONTEXT('part definition',#90,'design');
#70=PRODUCT_DEFINITION_CONTEXT('part definition',#90,'design');
#71=SHAPE_DEFINITION_REPRESENTATION(#74,#97);
#72=SHAPE_DEFINITION_REPRESENTATION(#75,#98);
#73=SHAPE_DEFINITION_REPRESENTATION(#76,#99);
#74=PRODUCT_DEFINITION_SHAPE('PRODUCT_VERSION_ID',
'PRODUCT_VERSION_DESCR',#80);
#75=PRODUCT_DEFINITION_SHAPE('PRODUCT_VERSION_ID',
'PRODUCT_VERSION_DESCR',#81);
#76=PRODUCT_DEFINITION_SHAPE('PRODUCT_VERSION_ID',
'PRODUCT_VERSION_DESCR',#82);
#77=PRODUCT_DEFINITION_SHAPE('NAME_10',$,#13);
#78=PRODUCT_DEFINITION_SHAPE('NAME_20',$,#14);
#79=PRODUCT_DEFINITION_SHAPE('NAME_30',$,#15);
#80=PRODUCT_DEFINITION('Body-Yellow','PRODUCT_VERSION_DESCR',#83,#68);
#81=PRODUCT_DEFINITION('Pin','PRODUCT_VERSION_DESCR',#84,#69);
#82=PRODUCT_DEFINITION('PRODUCT_VERSION_ID','PRODUCT_VERSION_DESCR',#85,
#70);
#83=PRODUCT_DEFINITION_FORMATION_WITH_SPECIFIED_SOURCE(
'PRODUCT_VERSION_ID','PRODUCT_VERSION_DESCR',#94,.MADE.);
#84=PRODUCT_DEFINITION_FORMATION_WITH_SPECIFIED_SOURCE(
'PRODUCT_VERSION_ID','PRODUCT_VERSION_DESCR',#95,.MADE.);
#85=PRODUCT_DEFINITION_FORMATION_WITH_SPECIFIED_SOURCE(
'PRODUCT_VERSION_ID','PRODUCT_VERSION_DESCR',#96,.MADE.);
#86=PRODUCT_RELATED_PRODUCT_CATEGORY('part','part',(#94));
#87=PRODUCT_RELATED_PRODUCT_CATEGORY('part','part',(#95));
#88=PRODUCT_RELATED_PRODUCT_CATEGORY('part','part',(#96));
#89=APPLICATION_PROTOCOL_DEFINITION('Draft International Standard',
'automotive_design',1994,#90);
#90=APPLICATION_CONTEXT('automotive_Design');
#91=PRODUCT_CONTEXT('3D Mechanical Parts',#90,'mechanical');
#92=PRODUCT_CONTEXT('3D Mechanical Parts',#90,'mechanical');
#93=PRODUCT_CONTEXT('3D Mechanical Parts',#90,'mechanical');
#94=PRODUCT('','Body-Yellow','',(#91));
#95=PRODUCT('','Pin','',(#92));
#96=PRODUCT('','SML-LXR44YC','',(#93));
#97=SHAPE_REPRESENTATION('Body-Yellow',(#823),#114);
#98=SHAPE_REPRESENTATION('Pin',(#825,#827),#115);
#99=SHAPE_REPRESENTATION('NAME_0',(#822,#824,#826),#116);
#100=SHAPE_REPRESENTATION_RELATIONSHIP('NAME_0',$,#97,#1216);
#101=SHAPE_REPRESENTATION_RELATIONSHIP('NAME_0',$,#98,#1217);
#102=(
LENGTH_UNIT()
NAMED_UNIT(*)
SI_UNIT(.CENTI.,.METRE.)
);
#103=(
LENGTH_UNIT()
NAMED_UNIT(*)
SI_UNIT(.CENTI.,.METRE.)
);
#104=(
LENGTH_UNIT()
NAMED_UNIT(*)
SI_UNIT(.CENTI.,.METRE.)
);
#105=(
NAMED_UNIT(*)
PLANE_ANGLE_UNIT()
SI_UNIT($,.RADIAN.)
);
#106=(
NAMED_UNIT(*)
PLANE_ANGLE_UNIT()
SI_UNIT($,.RADIAN.)
);
#107=(
NAMED_UNIT(*)
PLANE_ANGLE_UNIT()
SI_UNIT($,.RADIAN.)
);
#108=(
NAMED_UNIT(*)
SI_UNIT($,.STERADIAN.)
SOLID_ANGLE_UNIT()
);
#109=(
NAMED_UNIT(*)
SI_UNIT($,.STERADIAN.)
SOLID_ANGLE_UNIT()
);
#110=(
NAMED_UNIT(*)
SI_UNIT($,.STERADIAN.)
SOLID_ANGLE_UNIT()
);
#111=UNCERTAINTY_MEASURE_WITH_UNIT(LENGTH_MEASURE(1.E-006),#102,
'DISTANCE_ACCURACY_VALUE',
'Maximum model space distance between geometric entities at asserted co
nnectivities');
#112=UNCERTAINTY_MEASURE_WITH_UNIT(LENGTH_MEASURE(1.E-006),#103,
'DISTANCE_ACCURACY_VALUE',
'Maximum model space distance between geometric entities at asserted co
nnectivities');
#113=UNCERTAINTY_MEASURE_WITH_UNIT(LENGTH_MEASURE(1.E-006),#104,
'DISTANCE_ACCURACY_VALUE',
'Maximum model space distance between geometric entities at asserted co
nnectivities');
#114=(
GEOMETRIC_REPRESENTATION_CONTEXT(3)
GLOBAL_UNCERTAINTY_ASSIGNED_CONTEXT((#111))
GLOBAL_UNIT_ASSIGNED_CONTEXT((#108,#105,#102))
REPRESENTATION_CONTEXT('ID1','3D')
);
#115=(
GEOMETRIC_REPRESENTATION_CONTEXT(3)
GLOBAL_UNCERTAINTY_ASSIGNED_CONTEXT((#112))
GLOBAL_UNIT_ASSIGNED_CONTEXT((#109,#106,#103))
REPRESENTATION_CONTEXT('ID1','3D')
);
#116=(
GEOMETRIC_REPRESENTATION_CONTEXT(3)
GLOBAL_UNCERTAINTY_ASSIGNED_CONTEXT((#113))
GLOBAL_UNIT_ASSIGNED_CONTEXT((#110,#107,#104))
REPRESENTATION_CONTEXT('ID1','3D')
);
#117=VECTOR('',#836,1.);
#118=VECTOR('',#837,1.);
#119=VECTOR('',#838,1.);
#120=VECTOR('',#839,1.);
#121=VECTOR('',#841,1.);
#122=VECTOR('',#842,1.);
#123=VECTOR('',#843,1.);
#124=VECTOR('',#845,1.);
#125=VECTOR('',#846,1.);
#126=VECTOR('',#847,1.);
#127=VECTOR('',#849,1.);
#128=VECTOR('',#850,1.);
#129=VECTOR('',#851,1.);
#130=VECTOR('',#852,1.);
#131=VECTOR('',#853,1.);
#132=VECTOR('',#854,1.);
#133=VECTOR('',#855,1.);
#134=VECTOR('',#856,1.);
#135=VECTOR('',#857,1.);
#136=VECTOR('',#858,1.);
#137=VECTOR('',#859,1.);
#138=VECTOR('',#860,1.);
#139=VECTOR('',#861,1.);
#140=VECTOR('',#863,1.);
#141=VECTOR('',#864,1.);
#142=VECTOR('',#865,1.);
#143=VECTOR('',#867,1.);
#144=VECTOR('',#868,1.);
#145=VECTOR('',#869,1.);
#146=VECTOR('',#870,1.);
#147=VECTOR('',#871,1.);
#148=VECTOR('',#872,1.);
#149=VECTOR('',#874,1.);
#150=VECTOR('',#875,1.);
#151=VECTOR('',#877,1.);
#152=VECTOR('',#878,1.);
#153=VECTOR('',#879,1.);
#154=VECTOR('',#880,1.);
#155=VECTOR('',#881,1.);
#156=VECTOR('',#883,1.);
#157=VECTOR('',#884,1.);
#158=VECTOR('',#885,1.);
#159=VECTOR('',#887,1.);
#160=VECTOR('',#888,1.);
#161=VECTOR('',#890,1.);
#162=VECTOR('',#891,1.);
#163=VECTOR('',#892,1.);
#164=VECTOR('',#893,1.);
#165=VECTOR('',#896,1.);
#166=VECTOR('',#897,1.);
#167=VECTOR('',#899,1.);
#168=VECTOR('',#900,1.);
#169=VECTOR('',#902,1.);
#170=VECTOR('',#903,1.);
#171=VECTOR('',#905,1.);
#172=VECTOR('',#907,1.);
#173=VECTOR('',#910,1.);
#174=VECTOR('',#911,1.);
#175=VECTOR('',#912,1.);
#176=VECTOR('',#913,1.);
#177=VECTOR('',#915,1.);
#178=VECTOR('',#916,1.);
#179=VECTOR('',#917,1.);
#180=VECTOR('',#922,1.);
#181=VECTOR('',#926,1.);
#182=VECTOR('',#927,1.);
#183=VECTOR('',#928,1.);
#184=VECTOR('',#933,1.);
#185=VECTOR('',#937,1.);
#186=VECTOR('',#938,1.);
#187=VECTOR('',#939,1.);
#188=VECTOR('',#941,1.);
#189=VECTOR('',#942,1.);
#190=VECTOR('',#943,1.);
#191=VECTOR('',#945,1.);
#192=VECTOR('',#946,1.);
#193=VECTOR('',#947,1.);
#194=VECTOR('',#952,1.);
#195=VECTOR('',#956,1.);
#196=VECTOR('',#957,1.);
#197=VECTOR('',#958,1.);
#198=VECTOR('',#963,1.);
#199=VECTOR('',#967,1.);
#200=VECTOR('',#968,1.);
#201=LINE('',#990,#117);
#202=LINE('',#993,#118);
#203=LINE('',#995,#119);
#204=LINE('',#997,#120);
#205=LINE('',#999,#121);
#206=LINE('',#1001,#122);
#207=LINE('',#1003,#123);
#208=LINE('',#1005,#124);
#209=LINE('',#1007,#125);
#210=LINE('',#1009,#126);
#211=LINE('',#1011,#127);
#212=LINE('',#1014,#128);
#213=LINE('',#1016,#129);
#214=LINE('',#1018,#130);
#215=LINE('',#1020,#131);
#216=LINE('',#1022,#132);
#217=LINE('',#1024,#133);
#218=LINE('',#1026,#134);
#219=LINE('',#1028,#135);
#220=LINE('',#1030,#136);
#221=LINE('',#1031,#137);
#222=LINE('',#1033,#138);
#223=LINE('',#1035,#139);
#224=LINE('',#1037,#140);
#225=LINE('',#1039,#141);
#226=LINE('',#1041,#142);
#227=LINE('',#1043,#143);
#228=LINE('',#1045,#144);
#229=LINE('',#1047,#145);
#230=LINE('',#1049,#146);
#231=LINE('',#1052,#147);
#232=LINE('',#1054,#148);
#233=LINE('',#1056,#149);
#234=LINE('',#1058,#150);
#235=LINE('',#1060,#151);
#236=LINE('',#1062,#152);
#237=LINE('',#1065,#153);
#238=LINE('',#1067,#154);
#239=LINE('',#1069,#155);
#240=LINE('',#1071,#156);
#241=LINE('',#1072,#157);
#242=LINE('',#1074,#158);
#243=LINE('',#1076,#159);
#244=LINE('',#1078,#160);
#245=LINE('',#1080,#161);
#246=LINE('',#1081,#162);
#247=LINE('',#1083,#163);
#248=LINE('',#1085,#164);
#249=LINE('',#1088,#165);
#250=LINE('',#1089,#166);
#251=LINE('',#1092,#167);
#252=LINE('',#1094,#168);
#253=LINE('',#1096,#169);
#254=LINE('',#1097,#170);
#255=LINE('',#1099,#171);
#256=LINE('',#1101,#172);
#257=LINE('',#1104,#173);
#258=LINE('',#1107,#174);
#259=LINE('',#1109,#175);
#260=LINE('',#1111,#176);
#261=LINE('',#1113,#177);
#262=LINE('',#1115,#178);
#263=LINE('',#1117,#179);
#264=LINE('',#1121,#180);
#265=LINE('',#1125,#181);
#266=LINE('',#1127,#182);
#267=LINE('',#1129,#183);
#268=LINE('',#1133,#184);
#269=LINE('',#1137,#185);
#270=LINE('',#1139,#186);
#271=LINE('',#1141,#187);
#272=LINE('',#1143,#188);
#273=LINE('',#1145,#189);
#274=LINE('',#1147,#190);
#275=LINE('',#1149,#191);
#276=LINE('',#1151,#192);
#277=LINE('',#1153,#193);
#278=LINE('',#1157,#194);
#279=LINE('',#1161,#195);
#280=LINE('',#1163,#196);
#281=LINE('',#1165,#197);
#282=LINE('',#1169,#198);
#283=LINE('',#1173,#199);
#284=LINE('',#1174,#200);
#285=CYLINDRICAL_SURFACE('',#780,0.12);
#286=CYLINDRICAL_SURFACE('',#802,0.01);
#287=CYLINDRICAL_SURFACE('',#806,0.00999999999999956);
#288=CYLINDRICAL_SURFACE('',#812,0.01);
#289=CYLINDRICAL_SURFACE('',#816,0.01);
#290=VERTEX_POINT('',#985);
#291=VERTEX_POINT('',#988);
#292=VERTEX_POINT('',#991);
#293=VERTEX_POINT('',#992);
#294=VERTEX_POINT('',#994);
#295=VERTEX_POINT('',#996);
#296=VERTEX_POINT('',#1000);
#297=VERTEX_POINT('',#1002);
#298=VERTEX_POINT('',#1006);
#299=VERTEX_POINT('',#1008);
#300=VERTEX_POINT('',#1012);
#301=VERTEX_POINT('',#1013);
#302=VERTEX_POINT('',#1015);
#303=VERTEX_POINT('',#1017);
#304=VERTEX_POINT('',#1019);
#305=VERTEX_POINT('',#1021);
#306=VERTEX_POINT('',#1023);
#307=VERTEX_POINT('',#1025);
#308=VERTEX_POINT('',#1027);
#309=VERTEX_POINT('',#1029);
#310=VERTEX_POINT('',#1032);
#311=VERTEX_POINT('',#1034);
#312=VERTEX_POINT('',#1038);
#313=VERTEX_POINT('',#1040);
#314=VERTEX_POINT('',#1044);
#315=VERTEX_POINT('',#1046);
#316=VERTEX_POINT('',#1048);
#317=VERTEX_POINT('',#1050);
#318=VERTEX_POINT('',#1051);
#319=VERTEX_POINT('',#1053);
#320=VERTEX_POINT('',#1057);
#321=VERTEX_POINT('',#1061);
#322=VERTEX_POINT('',#1063);
#323=VERTEX_POINT('',#1064);
#324=VERTEX_POINT('',#1066);
#325=VERTEX_POINT('',#1068);
#326=VERTEX_POINT('',#1073);
#327=VERTEX_POINT('',#1077);
#328=VERTEX_POINT('',#1082);
#329=VERTEX_POINT('',#1084);
#330=VERTEX_POINT('',#1090);
#331=VERTEX_POINT('',#1093);
#332=VERTEX_POINT('',#1105);
#333=VERTEX_POINT('',#1106);
#334=VERTEX_POINT('',#1108);
#335=VERTEX_POINT('',#1110);
#336=VERTEX_POINT('',#1114);
#337=VERTEX_POINT('',#1116);
#338=VERTEX_POINT('',#1120);
#339=VERTEX_POINT('',#1122);
#340=VERTEX_POINT('',#1126);
#341=VERTEX_POINT('',#1128);
#342=VERTEX_POINT('',#1132);
#343=VERTEX_POINT('',#1134);
#344=VERTEX_POINT('',#1138);
#345=VERTEX_POINT('',#1140);
#346=VERTEX_POINT('',#1144);
#347=VERTEX_POINT('',#1146);
#348=VERTEX_POINT('',#1150);
#349=VERTEX_POINT('',#1152);
#350=VERTEX_POINT('',#1156);
#351=VERTEX_POINT('',#1158);
#352=VERTEX_POINT('',#1162);
#353=VERTEX_POINT('',#1164);
#354=VERTEX_POINT('',#1168);
#355=VERTEX_POINT('',#1170);
#356=CIRCLE('',#779,0.12);
#357=CIRCLE('',#781,0.12);
#358=CIRCLE('',#803,0.01);
#359=CIRCLE('',#804,0.01);
#360=CIRCLE('',#807,0.00999999999999956);
#361=CIRCLE('',#808,0.00999999999999956);
#362=CIRCLE('',#813,0.01);
#363=CIRCLE('',#814,0.01);
#364=CIRCLE('',#817,0.01);
#365=CIRCLE('',#818,0.01);
#366=EDGE_CURVE('',#290,#290,#356,.T.);
#367=EDGE_CURVE('',#291,#291,#357,.T.);
#368=EDGE_CURVE('',#292,#293,#201,.T.);
#369=EDGE_CURVE('',#294,#292,#202,.T.);
#370=EDGE_CURVE('',#295,#294,#203,.T.);
#371=EDGE_CURVE('',#295,#293,#204,.T.);
#372=EDGE_CURVE('',#293,#296,#205,.T.);
#373=EDGE_CURVE('',#297,#295,#206,.T.);
#374=EDGE_CURVE('',#297,#296,#207,.T.);
#375=EDGE_CURVE('',#296,#298,#208,.T.);
#376=EDGE_CURVE('',#299,#297,#209,.T.);
#377=EDGE_CURVE('',#298,#299,#210,.T.);
#378=EDGE_CURVE('',#300,#301,#211,.T.);
#379=EDGE_CURVE('',#302,#300,#212,.T.);
#380=EDGE_CURVE('',#303,#302,#213,.T.);
#381=EDGE_CURVE('',#304,#303,#214,.T.);
#382=EDGE_CURVE('',#305,#304,#215,.T.);
#383=EDGE_CURVE('',#306,#305,#216,.T.);
#384=EDGE_CURVE('',#307,#306,#217,.T.);
#385=EDGE_CURVE('',#308,#307,#218,.T.);
#386=EDGE_CURVE('',#309,#308,#219,.T.);
#387=EDGE_CURVE('',#292,#309,#220,.T.);
#388=EDGE_CURVE('',#310,#298,#221,.T.);
#389=EDGE_CURVE('',#311,#310,#222,.T.);
#390=EDGE_CURVE('',#301,#311,#223,.T.);
#391=EDGE_CURVE('',#306,#312,#224,.T.);
#392=EDGE_CURVE('',#312,#313,#225,.T.);
#393=EDGE_CURVE('',#313,#307,#226,.T.);
#394=EDGE_CURVE('',#304,#314,#227,.T.);
#395=EDGE_CURVE('',#314,#315,#228,.T.);
#396=EDGE_CURVE('',#315,#316,#229,.T.);
#397=EDGE_CURVE('',#316,#317,#230,.T.);
#398=EDGE_CURVE('',#317,#318,#227,.T.);
#399=EDGE_CURVE('',#319,#318,#231,.T.);
#400=EDGE_CURVE('',#319,#305,#232,.T.);
#401=EDGE_CURVE('',#320,#303,#233,.T.);
#402=EDGE_CURVE('',#320,#314,#234,.T.);
#403=EDGE_CURVE('',#302,#321,#235,.T.);
#404=EDGE_CURVE('',#321,#322,#236,.T.);
#405=EDGE_CURVE('',#322,#323,#233,.T.);
#406=EDGE_CURVE('',#323,#324,#237,.T.);
#407=EDGE_CURVE('',#324,#325,#238,.T.);
#408=EDGE_CURVE('',#325,#320,#239,.T.);
#409=EDGE_CURVE('',#321,#319,#240,.T.);
#410=EDGE_CURVE('',#326,#300,#241,.T.);
#411=EDGE_CURVE('',#312,#326,#242,.T.);
#412=EDGE_CURVE('',#301,#327,#243,.T.);
#413=EDGE_CURVE('',#327,#326,#244,.T.);
#414=EDGE_CURVE('',#327,#313,#245,.T.);
#415=EDGE_CURVE('',#328,#311,#246,.T.);
#416=EDGE_CURVE('',#329,#328,#247,.T.);
#417=EDGE_CURVE('',#308,#329,#248,.T.);
#418=EDGE_CURVE('',#318,#322,#249,.T.);
#419=EDGE_CURVE('',#310,#330,#250,.T.);
#420=EDGE_CURVE('',#330,#328,#236,.T.);
#421=EDGE_CURVE('',#294,#299,#251,.T.);
#422=EDGE_CURVE('',#331,#329,#231,.T.);
#423=EDGE_CURVE('',#331,#309,#252,.T.);
#424=EDGE_CURVE('',#324,#316,#253,.T.);
#425=EDGE_CURVE('',#317,#323,#254,.T.);
#426=EDGE_CURVE('',#325,#315,#255,.T.);
#427=EDGE_CURVE('',#330,#331,#256,.T.);
#428=EDGE_CURVE('',#332,#333,#257,.T.);
#429=EDGE_CURVE('',#334,#333,#258,.T.);
#430=EDGE_CURVE('',#335,#334,#259,.T.);
#431=EDGE_CURVE('',#335,#332,#260,.T.);
#432=EDGE_CURVE('',#333,#336,#261,.T.);
#433=EDGE_CURVE('',#337,#336,#262,.T.);
#434=EDGE_CURVE('',#334,#337,#263,.T.);
#435=EDGE_CURVE('',#336,#338,#358,.T.);
#436=EDGE_CURVE('',#339,#338,#264,.T.);
#437=EDGE_CURVE('',#339,#337,#359,.T.);
#438=EDGE_CURVE('',#338,#340,#265,.T.);
#439=EDGE_CURVE('',#341,#340,#266,.T.);
#440=EDGE_CURVE('',#339,#341,#267,.T.);
#441=EDGE_CURVE('',#340,#342,#360,.T.);
#442=EDGE_CURVE('',#343,#342,#268,.T.);
#443=EDGE_CURVE('',#343,#341,#361,.T.);
#444=EDGE_CURVE('',#342,#344,#269,.T.);
#445=EDGE_CURVE('',#345,#344,#270,.T.);
#446=EDGE_CURVE('',#343,#345,#271,.T.);
#447=EDGE_CURVE('',#344,#346,#272,.T.);
#448=EDGE_CURVE('',#347,#346,#273,.T.);
#449=EDGE_CURVE('',#345,#347,#274,.T.);
#450=EDGE_CURVE('',#346,#348,#275,.T.);
#451=EDGE_CURVE('',#349,#348,#276,.T.);
#452=EDGE_CURVE('',#347,#349,#277,.T.);
#453=EDGE_CURVE('',#348,#350,#362,.T.);
#454=EDGE_CURVE('',#351,#350,#278,.T.);
#455=EDGE_CURVE('',#349,#351,#363,.T.);
#456=EDGE_CURVE('',#350,#352,#279,.T.);
#457=EDGE_CURVE('',#353,#352,#280,.T.);
#458=EDGE_CURVE('',#351,#353,#281,.T.);
#459=EDGE_CURVE('',#352,#354,#364,.T.);
#460=EDGE_CURVE('',#355,#354,#282,.T.);
#461=EDGE_CURVE('',#353,#355,#365,.T.);
#462=EDGE_CURVE('',#354,#332,#283,.T.);
#463=EDGE_CURVE('',#355,#335,#284,.T.);
#464=ORIENTED_EDGE('',*,*,#366,.F.);
#465=ORIENTED_EDGE('',*,*,#366,.T.);
#466=ORIENTED_EDGE('',*,*,#367,.F.);
#467=ORIENTED_EDGE('',*,*,#368,.F.);
#468=ORIENTED_EDGE('',*,*,#369,.F.);
#469=ORIENTED_EDGE('',*,*,#370,.F.);
#470=ORIENTED_EDGE('',*,*,#371,.T.);
#471=ORIENTED_EDGE('',*,*,#372,.F.);
#472=ORIENTED_EDGE('',*,*,#371,.F.);
#473=ORIENTED_EDGE('',*,*,#373,.F.);
#474=ORIENTED_EDGE('',*,*,#374,.T.);
#475=ORIENTED_EDGE('',*,*,#375,.F.);
#476=ORIENTED_EDGE('',*,*,#374,.F.);
#477=ORIENTED_EDGE('',*,*,#376,.F.);
#478=ORIENTED_EDGE('',*,*,#377,.F.);
#479=ORIENTED_EDGE('',*,*,#378,.F.);
#480=ORIENTED_EDGE('',*,*,#379,.F.);
#481=ORIENTED_EDGE('',*,*,#380,.F.);
#482=ORIENTED_EDGE('',*,*,#381,.F.);
#483=ORIENTED_EDGE('',*,*,#382,.F.);
#484=ORIENTED_EDGE('',*,*,#383,.F.);
#485=ORIENTED_EDGE('',*,*,#384,.F.);
#486=ORIENTED_EDGE('',*,*,#385,.F.);
#487=ORIENTED_EDGE('',*,*,#386,.F.);
#488=ORIENTED_EDGE('',*,*,#387,.F.);
#489=ORIENTED_EDGE('',*,*,#368,.T.);
#490=ORIENTED_EDGE('',*,*,#372,.T.);
#491=ORIENTED_EDGE('',*,*,#375,.T.);
#492=ORIENTED_EDGE('',*,*,#388,.F.);
#493=ORIENTED_EDGE('',*,*,#389,.F.);
#494=ORIENTED_EDGE('',*,*,#390,.F.);
#495=ORIENTED_EDGE('',*,*,#384,.T.);
#496=ORIENTED_EDGE('',*,*,#391,.T.);
#497=ORIENTED_EDGE('',*,*,#392,.T.);
#498=ORIENTED_EDGE('',*,*,#393,.T.);
#499=ORIENTED_EDGE('',*,*,#382,.T.);
#500=ORIENTED_EDGE('',*,*,#394,.T.);
#501=ORIENTED_EDGE('',*,*,#395,.T.);
#502=ORIENTED_EDGE('',*,*,#396,.T.);
#503=ORIENTED_EDGE('',*,*,#397,.T.);
#504=ORIENTED_EDGE('',*,*,#398,.T.);
#505=ORIENTED_EDGE('',*,*,#399,.F.);
#506=ORIENTED_EDGE('',*,*,#400,.T.);
#507=ORIENTED_EDGE('',*,*,#381,.T.);
#508=ORIENTED_EDGE('',*,*,#401,.F.);
#509=ORIENTED_EDGE('',*,*,#402,.T.);
#510=ORIENTED_EDGE('',*,*,#394,.F.);
#511=ORIENTED_EDGE('',*,*,#380,.T.);
#512=ORIENTED_EDGE('',*,*,#403,.T.);
#513=ORIENTED_EDGE('',*,*,#404,.T.);
#514=ORIENTED_EDGE('',*,*,#405,.T.);
#515=ORIENTED_EDGE('',*,*,#406,.T.);
#516=ORIENTED_EDGE('',*,*,#407,.T.);
#517=ORIENTED_EDGE('',*,*,#408,.T.);
#518=ORIENTED_EDGE('',*,*,#401,.T.);
#519=ORIENTED_EDGE('',*,*,#383,.T.);
#520=ORIENTED_EDGE('',*,*,#400,.F.);
#521=ORIENTED_EDGE('',*,*,#409,.F.);
#522=ORIENTED_EDGE('',*,*,#403,.F.);
#523=ORIENTED_EDGE('',*,*,#379,.T.);
#524=ORIENTED_EDGE('',*,*,#410,.F.);
#525=ORIENTED_EDGE('',*,*,#411,.F.);
#526=ORIENTED_EDGE('',*,*,#391,.F.);
#527=ORIENTED_EDGE('',*,*,#378,.T.);
#528=ORIENTED_EDGE('',*,*,#412,.T.);
#529=ORIENTED_EDGE('',*,*,#413,.T.);
#530=ORIENTED_EDGE('',*,*,#410,.T.);
#531=ORIENTED_EDGE('',*,*,#385,.T.);
#532=ORIENTED_EDGE('',*,*,#393,.F.);
#533=ORIENTED_EDGE('',*,*,#414,.F.);
#534=ORIENTED_EDGE('',*,*,#412,.F.);
#535=ORIENTED_EDGE('',*,*,#390,.T.);
#536=ORIENTED_EDGE('',*,*,#415,.F.);
#537=ORIENTED_EDGE('',*,*,#416,.F.);
#538=ORIENTED_EDGE('',*,*,#417,.F.);
#539=ORIENTED_EDGE('',*,*,#413,.F.);
#540=ORIENTED_EDGE('',*,*,#414,.T.);
#541=ORIENTED_EDGE('',*,*,#392,.F.);
#542=ORIENTED_EDGE('',*,*,#411,.T.);
#543=ORIENTED_EDGE('',*,*,#409,.T.);
#544=ORIENTED_EDGE('',*,*,#399,.T.);
#545=ORIENTED_EDGE('',*,*,#418,.T.);
#546=ORIENTED_EDGE('',*,*,#404,.F.);
#547=ORIENTED_EDGE('',*,*,#389,.T.);
#548=ORIENTED_EDGE('',*,*,#419,.T.);
#549=ORIENTED_EDGE('',*,*,#420,.T.);
#550=ORIENTED_EDGE('',*,*,#415,.T.);
#551=ORIENTED_EDGE('',*,*,#370,.T.);
#552=ORIENTED_EDGE('',*,*,#421,.T.);
#553=ORIENTED_EDGE('',*,*,#376,.T.);
#554=ORIENTED_EDGE('',*,*,#373,.T.);
#555=ORIENTED_EDGE('',*,*,#386,.T.);
#556=ORIENTED_EDGE('',*,*,#417,.T.);
#557=ORIENTED_EDGE('',*,*,#422,.F.);
#558=ORIENTED_EDGE('',*,*,#423,.T.);
#559=ORIENTED_EDGE('',*,*,#397,.F.);
#560=ORIENTED_EDGE('',*,*,#424,.F.);
#561=ORIENTED_EDGE('',*,*,#406,.F.);
#562=ORIENTED_EDGE('',*,*,#425,.F.);
#563=ORIENTED_EDGE('',*,*,#395,.F.);
#564=ORIENTED_EDGE('',*,*,#402,.F.);
#565=ORIENTED_EDGE('',*,*,#408,.F.);
#566=ORIENTED_EDGE('',*,*,#426,.T.);
#567=ORIENTED_EDGE('',*,*,#396,.F.);
#568=ORIENTED_EDGE('',*,*,#426,.F.);
#569=ORIENTED_EDGE('',*,*,#407,.F.);
#570=ORIENTED_EDGE('',*,*,#424,.T.);
#571=ORIENTED_EDGE('',*,*,#425,.T.);
#572=ORIENTED_EDGE('',*,*,#405,.F.);
#573=ORIENTED_EDGE('',*,*,#418,.F.);
#574=ORIENTED_EDGE('',*,*,#398,.F.);
#575=ORIENTED_EDGE('',*,*,#416,.T.);
#576=ORIENTED_EDGE('',*,*,#420,.F.);
#577=ORIENTED_EDGE('',*,*,#427,.T.);
#578=ORIENTED_EDGE('',*,*,#422,.T.);
#579=ORIENTED_EDGE('',*,*,#367,.T.);
#580=ORIENTED_EDGE('',*,*,#387,.T.);
#581=ORIENTED_EDGE('',*,*,#423,.F.);
#582=ORIENTED_EDGE('',*,*,#427,.F.);
#583=ORIENTED_EDGE('',*,*,#419,.F.);
#584=ORIENTED_EDGE('',*,*,#388,.T.);
#585=ORIENTED_EDGE('',*,*,#377,.T.);
#586=ORIENTED_EDGE('',*,*,#421,.F.);
#587=ORIENTED_EDGE('',*,*,#369,.T.);
#588=ORIENTED_EDGE('',*,*,#428,.T.);
#589=ORIENTED_EDGE('',*,*,#429,.F.);
#590=ORIENTED_EDGE('',*,*,#430,.F.);
#591=ORIENTED_EDGE('',*,*,#431,.T.);
#592=ORIENTED_EDGE('',*,*,#432,.T.);
#593=ORIENTED_EDGE('',*,*,#433,.F.);
#594=ORIENTED_EDGE('',*,*,#434,.F.);
#595=ORIENTED_EDGE('',*,*,#429,.T.);
#596=ORIENTED_EDGE('',*,*,#435,.T.);
#597=ORIENTED_EDGE('',*,*,#436,.F.);
#598=ORIENTED_EDGE('',*,*,#437,.T.);
#599=ORIENTED_EDGE('',*,*,#433,.T.);
#600=ORIENTED_EDGE('',*,*,#438,.T.);
#601=ORIENTED_EDGE('',*,*,#439,.F.);
#602=ORIENTED_EDGE('',*,*,#440,.F.);
#603=ORIENTED_EDGE('',*,*,#436,.T.);
#604=ORIENTED_EDGE('',*,*,#441,.T.);
#605=ORIENTED_EDGE('',*,*,#442,.F.);
#606=ORIENTED_EDGE('',*,*,#443,.T.);
#607=ORIENTED_EDGE('',*,*,#439,.T.);
#608=ORIENTED_EDGE('',*,*,#444,.T.);
#609=ORIENTED_EDGE('',*,*,#445,.F.);
#610=ORIENTED_EDGE('',*,*,#446,.F.);
#611=ORIENTED_EDGE('',*,*,#442,.T.);
#612=ORIENTED_EDGE('',*,*,#447,.T.);
#613=ORIENTED_EDGE('',*,*,#448,.F.);
#614=ORIENTED_EDGE('',*,*,#449,.F.);
#615=ORIENTED_EDGE('',*,*,#445,.T.);
#616=ORIENTED_EDGE('',*,*,#450,.T.);
#617=ORIENTED_EDGE('',*,*,#451,.F.);
#618=ORIENTED_EDGE('',*,*,#452,.F.);
#619=ORIENTED_EDGE('',*,*,#448,.T.);
#620=ORIENTED_EDGE('',*,*,#453,.T.);
#621=ORIENTED_EDGE('',*,*,#454,.F.);
#622=ORIENTED_EDGE('',*,*,#455,.F.);
#623=ORIENTED_EDGE('',*,*,#451,.T.);
#624=ORIENTED_EDGE('',*,*,#456,.T.);
#625=ORIENTED_EDGE('',*,*,#457,.F.);
#626=ORIENTED_EDGE('',*,*,#458,.F.);
#627=ORIENTED_EDGE('',*,*,#454,.T.);
#628=ORIENTED_EDGE('',*,*,#459,.T.);
#629=ORIENTED_EDGE('',*,*,#460,.F.);
#630=ORIENTED_EDGE('',*,*,#461,.F.);
#631=ORIENTED_EDGE('',*,*,#457,.T.);
#632=ORIENTED_EDGE('',*,*,#462,.T.);
#633=ORIENTED_EDGE('',*,*,#431,.F.);
#634=ORIENTED_EDGE('',*,*,#463,.F.);
#635=ORIENTED_EDGE('',*,*,#460,.T.);
#636=ORIENTED_EDGE('',*,*,#428,.F.);
#637=ORIENTED_EDGE('',*,*,#462,.F.);
#638=ORIENTED_EDGE('',*,*,#459,.F.);
#639=ORIENTED_EDGE('',*,*,#456,.F.);
#640=ORIENTED_EDGE('',*,*,#453,.F.);
#641=ORIENTED_EDGE('',*,*,#450,.F.);
#642=ORIENTED_EDGE('',*,*,#447,.F.);
#643=ORIENTED_EDGE('',*,*,#444,.F.);
#644=ORIENTED_EDGE('',*,*,#441,.F.);
#645=ORIENTED_EDGE('',*,*,#438,.F.);
#646=ORIENTED_EDGE('',*,*,#435,.F.);
#647=ORIENTED_EDGE('',*,*,#432,.F.);
#648=ORIENTED_EDGE('',*,*,#463,.T.);
#649=ORIENTED_EDGE('',*,*,#430,.T.);
#650=ORIENTED_EDGE('',*,*,#434,.T.);
#651=ORIENTED_EDGE('',*,*,#437,.F.);
#652=ORIENTED_EDGE('',*,*,#440,.T.);
#653=ORIENTED_EDGE('',*,*,#443,.F.);
#654=ORIENTED_EDGE('',*,*,#446,.T.);
#655=ORIENTED_EDGE('',*,*,#449,.T.);
#656=ORIENTED_EDGE('',*,*,#452,.T.);
#657=ORIENTED_EDGE('',*,*,#455,.T.);
#658=ORIENTED_EDGE('',*,*,#458,.T.);
#659=ORIENTED_EDGE('',*,*,#461,.T.);
#660=EDGE_LOOP('',(#464));
#661=EDGE_LOOP('',(#465));
#662=EDGE_LOOP('',(#466));
#663=EDGE_LOOP('',(#467,#468,#469,#470));
#664=EDGE_LOOP('',(#471,#472,#473,#474));
#665=EDGE_LOOP('',(#475,#476,#477,#478));
#666=EDGE_LOOP('',(#479,#480,#481,#482,#483,#484,#485,#486,#487,#488,#489,
#490,#491,#492,#493,#494));
#667=EDGE_LOOP('',(#495,#496,#497,#498));
#668=EDGE_LOOP('',(#499,#500,#501,#502,#503,#504,#505,#506));
#669=EDGE_LOOP('',(#507,#508,#509,#510));
#670=EDGE_LOOP('',(#511,#512,#513,#514,#515,#516,#517,#518));
#671=EDGE_LOOP('',(#519,#520,#521,#522,#523,#524,#525,#526));
#672=EDGE_LOOP('',(#527,#528,#529,#530));
#673=EDGE_LOOP('',(#531,#532,#533,#534,#535,#536,#537,#538));
#674=EDGE_LOOP('',(#539,#540,#541,#542));
#675=EDGE_LOOP('',(#543,#544,#545,#546));
#676=EDGE_LOOP('',(#547,#548,#549,#550));
#677=EDGE_LOOP('',(#551,#552,#553,#554));
#678=EDGE_LOOP('',(#555,#556,#557,#558));
#679=EDGE_LOOP('',(#559,#560,#561,#562));
#680=EDGE_LOOP('',(#563,#564,#565,#566));
#681=EDGE_LOOP('',(#567,#568,#569,#570));
#682=EDGE_LOOP('',(#571,#572,#573,#574));
#683=EDGE_LOOP('',(#575,#576,#577,#578));
#684=EDGE_LOOP('',(#579));
#685=EDGE_LOOP('',(#580,#581,#582,#583,#584,#585,#586,#587));
#686=EDGE_LOOP('',(#588,#589,#590,#591));
#687=EDGE_LOOP('',(#592,#593,#594,#595));
#688=EDGE_LOOP('',(#596,#597,#598,#599));
#689=EDGE_LOOP('',(#600,#601,#602,#603));
#690=EDGE_LOOP('',(#604,#605,#606,#607));
#691=EDGE_LOOP('',(#608,#609,#610,#611));
#692=EDGE_LOOP('',(#612,#613,#614,#615));
#693=EDGE_LOOP('',(#616,#617,#618,#619));
#694=EDGE_LOOP('',(#620,#621,#622,#623));
#695=EDGE_LOOP('',(#624,#625,#626,#627));
#696=EDGE_LOOP('',(#628,#629,#630,#631));
#697=EDGE_LOOP('',(#632,#633,#634,#635));
#698=EDGE_LOOP('',(#636,#637,#638,#639,#640,#641,#642,#643,#644,#645,#646,
#647));
#699=EDGE_LOOP('',(#648,#649,#650,#651,#652,#653,#654,#655,#656,#657,#658,
#659));
#700=FACE_BOUND('',#660,.T.);
#701=FACE_BOUND('',#661,.T.);
#702=FACE_BOUND('',#662,.T.);
#703=FACE_BOUND('',#663,.T.);
#704=FACE_BOUND('',#664,.T.);
#705=FACE_BOUND('',#665,.T.);
#706=FACE_BOUND('',#666,.T.);
#707=FACE_BOUND('',#667,.T.);
#708=FACE_BOUND('',#668,.T.);
#709=FACE_BOUND('',#669,.T.);
#710=FACE_BOUND('',#670,.T.);
#711=FACE_BOUND('',#671,.T.);
#712=FACE_BOUND('',#672,.T.);
#713=FACE_BOUND('',#673,.T.);
#714=FACE_BOUND('',#674,.T.);
#715=FACE_BOUND('',#675,.T.);
#716=FACE_BOUND('',#676,.T.);
#717=FACE_BOUND('',#677,.T.);
#718=FACE_BOUND('',#678,.T.);
#719=FACE_BOUND('',#679,.T.);
#720=FACE_BOUND('',#680,.T.);
#721=FACE_BOUND('',#681,.T.);
#722=FACE_BOUND('',#682,.T.);
#723=FACE_BOUND('',#683,.T.);
#724=FACE_BOUND('',#684,.T.);
#725=FACE_BOUND('',#685,.T.);
#726=FACE_BOUND('',#686,.T.);
#727=FACE_BOUND('',#687,.T.);
#728=FACE_BOUND('',#688,.T.);
#729=FACE_BOUND('',#689,.T.);
#730=FACE_BOUND('',#690,.T.);
#731=FACE_BOUND('',#691,.T.);
#732=FACE_BOUND('',#692,.T.);
#733=FACE_BOUND('',#693,.T.);
#734=FACE_BOUND('',#694,.T.);
#735=FACE_BOUND('',#695,.T.);
#736=FACE_BOUND('',#696,.T.);
#737=FACE_BOUND('',#697,.T.);
#738=FACE_BOUND('',#698,.T.);
#739=FACE_BOUND('',#699,.T.);
#740=ADVANCED_FACE('',(#700),#1183,.T.);
#741=ADVANCED_FACE('',(#701,#702),#285,.F.);
#742=ADVANCED_FACE('',(#703),#1184,.F.);
#743=ADVANCED_FACE('',(#704),#1185,.F.);
#744=ADVANCED_FACE('',(#705),#1186,.F.);
#745=ADVANCED_FACE('',(#706),#1187,.F.);
#746=ADVANCED_FACE('',(#707),#1188,.T.);
#747=ADVANCED_FACE('',(#708),#1189,.T.);
#748=ADVANCED_FACE('',(#709),#1190,.F.);
#749=ADVANCED_FACE('',(#710),#1191,.T.);
#750=ADVANCED_FACE('',(#711),#1192,.F.);
#751=ADVANCED_FACE('',(#712),#1193,.F.);
#752=ADVANCED_FACE('',(#713),#1194,.F.);
#753=ADVANCED_FACE('',(#714),#1195,.T.);
#754=ADVANCED_FACE('',(#715),#1196,.T.);
#755=ADVANCED_FACE('',(#716),#1191,.T.);
#756=ADVANCED_FACE('',(#717),#1197,.T.);
#757=ADVANCED_FACE('',(#718),#1189,.T.);
#758=ADVANCED_FACE('',(#719),#1198,.F.);
#759=ADVANCED_FACE('',(#720),#1199,.F.);
#760=ADVANCED_FACE('',(#721),#1200,.F.);
#761=ADVANCED_FACE('',(#722),#1190,.F.);
#762=ADVANCED_FACE('',(#723),#1196,.T.);
#763=ADVANCED_FACE('',(#724,#725),#1201,.T.);
#764=ADVANCED_FACE('',(#726),#1202,.T.);
#765=ADVANCED_FACE('',(#727),#1203,.T.);
#766=ADVANCED_FACE('',(#728),#286,.T.);
#767=ADVANCED_FACE('',(#729),#1204,.T.);
#768=ADVANCED_FACE('',(#730),#287,.T.);
#769=ADVANCED_FACE('',(#731),#1205,.T.);
#770=ADVANCED_FACE('',(#732),#1206,.T.);
#771=ADVANCED_FACE('',(#733),#1207,.T.);
#772=ADVANCED_FACE('',(#734),#288,.F.);
#773=ADVANCED_FACE('',(#735),#1208,.T.);
#774=ADVANCED_FACE('',(#736),#289,.F.);
#775=ADVANCED_FACE('',(#737),#1209,.T.);
#776=ADVANCED_FACE('',(#738),#1210,.F.);
#777=ADVANCED_FACE('',(#739),#1211,.T.);
#778=AXIS2_PLACEMENT_3D('',#983,#828,$);
#779=AXIS2_PLACEMENT_3D('',#984,#829,#830);
#780=AXIS2_PLACEMENT_3D('',#986,#831,#832);
#781=AXIS2_PLACEMENT_3D('',#987,#833,#834);
#782=AXIS2_PLACEMENT_3D('',#989,#835,$);
#783=AXIS2_PLACEMENT_3D('',#998,#840,$);
#784=AXIS2_PLACEMENT_3D('',#1004,#844,$);
#785=AXIS2_PLACEMENT_3D('',#1010,#848,$);
#786=AXIS2_PLACEMENT_3D('',#1036,#862,$);
#787=AXIS2_PLACEMENT_3D('',#1042,#866,$);
#788=AXIS2_PLACEMENT_3D('',#1055,#873,$);
#789=AXIS2_PLACEMENT_3D('',#1059,#876,$);
#790=AXIS2_PLACEMENT_3D('',#1070,#882,$);
#791=AXIS2_PLACEMENT_3D('',#1075,#886,$);
#792=AXIS2_PLACEMENT_3D('',#1079,#889,$);
#793=AXIS2_PLACEMENT_3D('',#1086,#894,$);
#794=AXIS2_PLACEMENT_3D('',#1087,#895,$);
#795=AXIS2_PLACEMENT_3D('',#1091,#898,$);
#796=AXIS2_PLACEMENT_3D('',#1095,#901,$);
#797=AXIS2_PLACEMENT_3D('',#1098,#904,$);
#798=AXIS2_PLACEMENT_3D('',#1100,#906,$);
#799=AXIS2_PLACEMENT_3D('',#1102,#908,$);
#800=AXIS2_PLACEMENT_3D('',#1103,#909,$);
#801=AXIS2_PLACEMENT_3D('',#1112,#914,$);
#802=AXIS2_PLACEMENT_3D('',#1118,#918,#919);
#803=AXIS2_PLACEMENT_3D('',#1119,#920,#921);
#804=AXIS2_PLACEMENT_3D('',#1123,#923,#924);
#805=AXIS2_PLACEMENT_3D('',#1124,#925,$);
#806=AXIS2_PLACEMENT_3D('',#1130,#929,#930);
#807=AXIS2_PLACEMENT_3D('',#1131,#931,#932);
#808=AXIS2_PLACEMENT_3D('',#1135,#934,#935);
#809=AXIS2_PLACEMENT_3D('',#1136,#936,$);
#810=AXIS2_PLACEMENT_3D('',#1142,#940,$);
#811=AXIS2_PLACEMENT_3D('',#1148,#944,$);
#812=AXIS2_PLACEMENT_3D('',#1154,#948,#949);
#813=AXIS2_PLACEMENT_3D('',#1155,#950,#951);
#814=AXIS2_PLACEMENT_3D('',#1159,#953,#954);
#815=AXIS2_PLACEMENT_3D('',#1160,#955,$);
#816=AXIS2_PLACEMENT_3D('',#1166,#959,#960);
#817=AXIS2_PLACEMENT_3D('',#1167,#961,#962);
#818=AXIS2_PLACEMENT_3D('',#1171,#964,#965);
#819=AXIS2_PLACEMENT_3D('',#1172,#966,$);
#820=AXIS2_PLACEMENT_3D('',#1175,#969,$);
#821=AXIS2_PLACEMENT_3D('',#1176,#970,$);
#822=AXIS2_PLACEMENT_3D('AXIS_PLACEMENT_1',#1177,#971,#972);
#823=AXIS2_PLACEMENT_3D('AXIS_PLACEMENT_5',#1178,#973,#974);
#824=AXIS2_PLACEMENT_3D('AXIS_PLACEMENT_11',#1179,#975,#976);
#825=AXIS2_PLACEMENT_3D('AXIS_PLACEMENT_15',#1180,#977,#978);
#826=AXIS2_PLACEMENT_3D('AXIS_PLACEMENT_21',#1181,#979,#980);
#827=AXIS2_PLACEMENT_3D('AXIS_PLACEMENT_25',#1182,#981,#982);
#828=DIRECTION('',(0.,0.,1.));
#829=DIRECTION('',(0.,0.,-1.));
#830=DIRECTION('',(0.12,0.,0.));
#831=DIRECTION('',(0.,0.,-1.));
#832=DIRECTION('',(0.12,0.,0.));
#833=DIRECTION('',(0.,0.,-1.));
#834=DIRECTION('',(0.12,0.,0.));
#835=DIRECTION('',(-1.,0.,-2.41352831440251E-016));
#836=DIRECTION('',(2.41352831440251E-016,0.,-1.));
#837=DIRECTION('',(0.,1.,0.));
#838=DIRECTION('',(-2.41352831440251E-016,0.,1.));
#839=DIRECTION('',(0.,1.,0.));
#840=DIRECTION('',(0.,0.,1.));
#841=DIRECTION('',(-1.,0.,0.));
#842=DIRECTION('',(1.,0.,0.));
#843=DIRECTION('',(0.,1.,0.));
#844=DIRECTION('',(1.,0.,0.));
#845=DIRECTION('',(0.,0.,1.));
#846=DIRECTION('',(0.,0.,-1.));
#847=DIRECTION('',(0.,-1.,0.));
#848=DIRECTION('',(0.,1.,0.));
#849=DIRECTION('',(8.89320717306743E-032,0.,1.));
#850=DIRECTION('',(1.,0.,0.));
#851=DIRECTION('',(0.,0.,1.));
#852=DIRECTION('',(-1.,0.,0.));
#853=DIRECTION('',(0.,0.,-1.));
#854=DIRECTION('',(1.,0.,0.));
#855=DIRECTION('',(2.09624006438332E-028,0.,-1.));
#856=DIRECTION('',(-1.,0.,0.));
#857=DIRECTION('',(0.,0.,-1.));
#858=DIRECTION('',(1.,0.,0.));
#859=DIRECTION('',(1.,0.,0.));
#860=DIRECTION('',(0.,0.,1.));
#861=DIRECTION('',(-1.,0.,0.));
#862=DIRECTION('',(1.,-1.47025087526032E-016,2.09624006438332E-028));
#863=DIRECTION('',(1.31342411523255E-016,1.,1.31342411523255E-016));
#864=DIRECTION('',(-2.09624006438332E-028,-3.22143337308587E-028,1.));
#865=DIRECTION('',(-1.31342411523255E-016,-1.,0.));
#866=DIRECTION('',(1.,-1.38777878078145E-016,0.));
#867=DIRECTION('',(1.38777878078145E-016,1.,0.));
#868=DIRECTION('',(2.72165810913638E-017,0.196116135138184,0.98058067569092));
#869=DIRECTION('',(1.38777878078145E-016,1.,0.));
#870=DIRECTION('',(2.72165810913638E-017,0.196116135138184,-0.98058067569092));
#871=DIRECTION('',(0.,0.,-1.));
#872=DIRECTION('',(-1.38777878078145E-016,-1.,-1.31342411523255E-016));
#873=DIRECTION('',(0.,0.,1.));
#874=DIRECTION('',(1.22464679914735E-016,-1.,0.));
#875=DIRECTION('',(1.,-1.24181910471126E-016,0.));
#876=DIRECTION('',(-1.,-1.22464679914735E-016,0.));
#877=DIRECTION('',(-1.22464679914735E-016,1.,0.));
#878=DIRECTION('',(0.,0.,-1.));
#879=DIRECTION('',(2.40172997158127E-017,-0.196116135138184,0.98058067569092));
#880=DIRECTION('',(1.22464679914735E-016,-1.,0.));
#881=DIRECTION('',(2.40172997158127E-017,-0.196116135138184,-0.98058067569092));
#882=DIRECTION('',(0.,0.,-1.));
#883=DIRECTION('',(1.,2.77555756156289E-016,3.64548423457275E-032));
#884=DIRECTION('',(1.22464679914735E-016,-1.,0.));
#885=DIRECTION('',(-1.,-2.87967999653926E-016,0.));
#886=DIRECTION('',(1.,1.22464679914735E-016,-8.89320717306743E-032));
#887=DIRECTION('',(-1.22464679914735E-016,1.,-1.27278480473566E-016));
#888=DIRECTION('',(-8.89320717307138E-032,3.22143337308587E-028,-1.));
#889=DIRECTION('',(0.,1.27278480473566E-016,1.));
#890=DIRECTION('',(1.,2.87967999653926E-016,-1.07987999870222E-016));
#891=DIRECTION('',(1.22464679914735E-016,-1.,1.27278480473566E-016));
#892=DIRECTION('',(-1.,-2.77555756156289E-016,3.53268748902641E-032));
#893=DIRECTION('',(1.38777878078145E-016,1.,0.));
#894=DIRECTION('',(-2.96564059345088E-016,1.,3.22143337308587E-028));
#895=DIRECTION('',(-2.77555756156289E-016,1.,0.));
#896=DIRECTION('',(-1.,-2.77555756156289E-016,0.));
#897=DIRECTION('',(-1.22464679914735E-016,1.,0.));
#898=DIRECTION('',(0.,-1.,0.));
#899=DIRECTION('',(-1.,0.,0.));
#900=DIRECTION('',(-1.38777878078145E-016,-1.,0.));
#901=DIRECTION('',(1.21770381678366E-016,0.98058067569092,0.196116135138184));
#902=DIRECTION('',(1.,-1.24181910471126E-016,0.));
#903=DIRECTION('',(-1.,1.24181910471126E-016,0.));
#904=DIRECTION('',(-1.21770381678366E-016,-0.98058067569092,0.196116135138184));
#905=DIRECTION('',(1.,-1.24181910471126E-016,0.));
#906=DIRECTION('',(0.,0.,1.));
#907=DIRECTION('',(1.,2.77555756156289E-016,0.));
#908=DIRECTION('',(0.,0.,1.));
#909=DIRECTION('',(-3.85185988877442E-031,2.77555756156285E-015,1.));
#910=DIRECTION('',(1.22464679914735E-016,-1.,2.77555756156285E-015));
#911=DIRECTION('',(-1.,-1.38777878078145E-016,0.));
#912=DIRECTION('',(1.22464679914735E-016,-1.,2.77555756156285E-015));
#913=DIRECTION('',(-1.,-1.38777878078145E-016,0.));
#914=DIRECTION('',(1.38777878078145E-016,-1.,5.89331076210353E-019));
#915=DIRECTION('',(7.21722416119047E-035,-5.89331076210353E-019,-1.));
#916=DIRECTION('',(-1.,-1.38777878078145E-016,0.));
#917=DIRECTION('',(7.21722416119047E-035,-5.89331076210353E-019,-1.));
#918=DIRECTION('',(-1.,-1.38777878078145E-016,0.));
#919=DIRECTION('',(0.,0.,0.01));
#920=DIRECTION('',(1.,1.22464679914735E-016,0.));
#921=DIRECTION('',(0.,0.,0.01));
#922=DIRECTION('',(-1.,-1.38777878078145E-016,0.));
#923=DIRECTION('',(-1.,-1.22464679914735E-016,0.));
#924=DIRECTION('',(0.,0.,0.01));
#925=DIRECTION('',(3.94801864087193E-031,-2.84484724478122E-015,-1.));
#926=DIRECTION('',(-1.22464679914735E-016,1.,-2.84484724478122E-015));
#927=DIRECTION('',(-1.,-1.38777878078145E-016,0.));
#928=DIRECTION('',(-1.22464679914735E-016,1.,-2.84484724478122E-015));
#929=DIRECTION('',(-1.,-1.38777878078145E-016,0.));
#930=DIRECTION('',(0.,0.,0.00999999999999956));
#931=DIRECTION('',(1.,1.22464679914735E-016,0.));
#932=DIRECTION('',(0.,0.,0.00999999999999956));
#933=DIRECTION('',(-1.,-1.38777878078145E-016,0.));
#934=DIRECTION('',(-1.,-1.22464679914735E-016,0.));
#935=DIRECTION('',(0.,0.,0.00999999999999956));
#936=DIRECTION('',(-1.36082905456819E-016,0.98058067569092,-0.196116135138186));
#937=DIRECTION('',(-2.40172997158129E-017,0.196116135138186,0.98058067569092));
#938=DIRECTION('',(-1.,-1.38777878078145E-016,0.));
#939=DIRECTION('',(-2.40172997158129E-017,0.196116135138186,0.98058067569092));
#940=DIRECTION('',(-2.72165810913637E-017,0.196116135138183,0.98058067569092));
#941=DIRECTION('',(1.20086498579063E-016,-0.98058067569092,0.196116135138183));
#942=DIRECTION('',(-1.,-1.38777878078145E-016,0.));
#943=DIRECTION('',(1.20086498579063E-016,-0.98058067569092,0.196116135138183));
#944=DIRECTION('',(1.36082905456819E-016,-0.98058067569092,0.196116135138186));
#945=DIRECTION('',(2.40172997158129E-017,-0.196116135138186,-0.98058067569092));
#946=DIRECTION('',(-1.,-1.38777878078145E-016,0.));
#947=DIRECTION('',(2.40172997158129E-017,-0.196116135138186,-0.98058067569092));
#948=DIRECTION('',(-1.,-1.38777878078145E-016,0.));
#949=DIRECTION('',(0.,0.,0.01));
#950=DIRECTION('',(-1.,-1.22464679914735E-016,0.));
#951=DIRECTION('',(0.,0.,0.01));
#952=DIRECTION('',(-1.,-1.38777878078145E-016,0.));
#953=DIRECTION('',(-1.,-1.22464679914735E-016,0.));
#954=DIRECTION('',(0.,0.,0.01));
#955=DIRECTION('',(0.,0.,1.));
#956=DIRECTION('',(1.22464679914735E-016,-1.,0.));
#957=DIRECTION('',(-1.,-1.38777878078145E-016,0.));
#958=DIRECTION('',(1.22464679914735E-016,-1.,0.));
#959=DIRECTION('',(-1.,-1.38777878078145E-016,0.));
#960=DIRECTION('',(0.,0.,0.01));
#961=DIRECTION('',(-1.,-1.22464679914735E-016,0.));
#962=DIRECTION('',(0.,0.,0.01));
#963=DIRECTION('',(-1.,-1.38777878078145E-016,0.));
#964=DIRECTION('',(-1.,-1.22464679914735E-016,0.));
#965=DIRECTION('',(0.,0.,0.01));
#966=DIRECTION('',(-1.38777878078145E-016,1.,-2.38054239259431E-015));
#967=DIRECTION('',(-2.9072262728899E-031,2.38054239259431E-015,1.));
#968=DIRECTION('',(-2.9072262728899E-031,2.38054239259431E-015,1.));
#969=DIRECTION('',(1.,1.22464679914735E-016,2.31111593326468E-033));
#970=DIRECTION('',(1.,1.22464679914735E-016,2.31111593326468E-033));
#971=DIRECTION('DIRECTION2',(0.,0.,1.));
#972=DIRECTION('DIRECTION3',(1.,0.,0.));
#973=DIRECTION('DIRECTION6',(0.,0.,1.));
#974=DIRECTION('DIRECTION7',(1.,0.,0.));
#975=DIRECTION('DIRECTION12',(0.,0.,1.));
#976=DIRECTION('DIRECTION13',(1.,0.,0.));
#977=DIRECTION('DIRECTION16',(0.,0.,1.));
#978=DIRECTION('DIRECTION17',(1.,0.,0.));
#979=DIRECTION('DIRECTION22',(0.,0.,1.));
#980=DIRECTION('DIRECTION23',(1.,0.,0.));
#981=DIRECTION('DIRECTION26',(0.,0.,1.));
#982=DIRECTION('DIRECTION27',(1.,0.,0.));
#983=CARTESIAN_POINT('',(0.200512632727623,0.26,-0.002));
#984=CARTESIAN_POINT('',(0.200512632727623,0.26,-0.002));
#985=CARTESIAN_POINT('',(0.320512632727623,0.26,-0.002));
#986=CARTESIAN_POINT('',(0.200512632727623,0.26,0.));
#987=CARTESIAN_POINT('',(0.200512632727623,0.26,0.));
#988=CARTESIAN_POINT('',(0.320512632727623,0.26,0.));
#989=CARTESIAN_POINT('',(0.225,0.,-0.0575));
#990=CARTESIAN_POINT('',(0.225,0.02,0.));
#991=CARTESIAN_POINT('',(0.225,0.02,0.));
#992=CARTESIAN_POINT('',(0.225,0.02,-0.115));
#993=CARTESIAN_POINT('',(0.225,0.1,0.));
#994=CARTESIAN_POINT('',(0.225,0.,0.));
#995=CARTESIAN_POINT('',(0.225,0.,-0.02875));
#996=CARTESIAN_POINT('',(0.225,0.,-0.115));
#997=CARTESIAN_POINT('',(0.225,0.,-0.115));
#998=CARTESIAN_POINT('',(0.2,0.,-0.115));
#999=CARTESIAN_POINT('',(0.225,0.02,-0.115));
#1000=CARTESIAN_POINT('',(0.175,0.02,-0.115));
#1001=CARTESIAN_POINT('',(0.2,0.,-0.115));
#1002=CARTESIAN_POINT('',(0.175,0.,-0.115));
#1003=CARTESIAN_POINT('',(0.175,0.,-0.115));
#1004=CARTESIAN_POINT('',(0.175,0.,-0.0575));
#1005=CARTESIAN_POINT('',(0.175,0.02,-0.115));
#1006=CARTESIAN_POINT('',(0.175,0.02,0.));
#1007=CARTESIAN_POINT('',(0.175,0.,-0.02875));
#1008=CARTESIAN_POINT('',(0.175,0.,0.));
#1009=CARTESIAN_POINT('',(0.175,0.1,0.));
#1010=CARTESIAN_POINT('',(0.2,0.02,-0.165013966480447));
#1011=CARTESIAN_POINT('',(0.01,0.02,-0.117506983240223));
#1012=CARTESIAN_POINT('',(0.01,0.02,-0.075));
#1013=CARTESIAN_POINT('',(0.01,0.02,-0.065));
#1014=CARTESIAN_POINT('',(0.1,0.02,-0.075));
#1015=CARTESIAN_POINT('',(0.,0.02,-0.075));
#1016=CARTESIAN_POINT('',(0.,0.02,-0.0825069832402235));
#1017=CARTESIAN_POINT('',(0.,0.02,-0.36));
#1018=CARTESIAN_POINT('',(0.2,0.02,-0.36));
#1019=CARTESIAN_POINT('',(0.4,0.02,-0.36));
#1020=CARTESIAN_POINT('',(0.4,0.02,-0.0825069832402235));
#1021=CARTESIAN_POINT('',(0.4,0.02,-0.075));
#1022=CARTESIAN_POINT('',(0.1,0.02,-0.075));
#1023=CARTESIAN_POINT('',(0.39,0.02,-0.075));
#1024=CARTESIAN_POINT('',(0.39,0.02,-0.117506983240223));
#1025=CARTESIAN_POINT('',(0.39,0.02,-0.065));
#1026=CARTESIAN_POINT('',(0.1,0.02,-0.065));
#1027=CARTESIAN_POINT('',(0.4,0.02,-0.065));
#1028=CARTESIAN_POINT('',(0.4,0.02,-0.0825069832402235));
#1029=CARTESIAN_POINT('',(0.4,0.02,0.));
#1030=CARTESIAN_POINT('',(0.2,0.02,0.));
#1031=CARTESIAN_POINT('',(0.2,0.02,0.));
#1032=CARTESIAN_POINT('',(0.,0.02,9.62964972193618E-035));
#1033=CARTESIAN_POINT('',(0.,0.02,-0.0825069832402235));
#1034=CARTESIAN_POINT('',(0.,0.02,-0.065));
#1035=CARTESIAN_POINT('',(0.1,0.02,-0.065));
#1036=CARTESIAN_POINT('',(0.39,0.203761026263237,-0.07));
#1037=CARTESIAN_POINT('',(0.39,-0.00756123661994934,-0.075));
#1038=CARTESIAN_POINT('',(0.39,0.39,-0.075));
#1039=CARTESIAN_POINT('',(0.39,0.39,-0.07));
#1040=CARTESIAN_POINT('',(0.39,0.39,-0.0650000000000001));
#1041=CARTESIAN_POINT('',(0.39,0.415083289146423,-0.065));
#1042=CARTESIAN_POINT('',(0.4,0.2,0.));
#1043=CARTESIAN_POINT('',(0.4,0.4,-0.36));
#1044=CARTESIAN_POINT('',(0.4,0.1,-0.36));
#1045=CARTESIAN_POINT('',(0.4,0.149038461538462,-0.114807692307692));
#1046=CARTESIAN_POINT('',(0.4,0.15,-0.11));
#1047=CARTESIAN_POINT('',(0.4,0.2,-0.11));
#1048=CARTESIAN_POINT('',(0.4,0.25,-0.11));
#1049=CARTESIAN_POINT('',(0.4,0.250961538461539,-0.114807692307692));
#1050=CARTESIAN_POINT('',(0.4,0.3,-0.36));
#1051=CARTESIAN_POINT('',(0.4,0.4,-0.36));
#1052=CARTESIAN_POINT('',(0.4,0.4,0.));
#1053=CARTESIAN_POINT('',(0.4,0.4,-0.075));
#1054=CARTESIAN_POINT('',(0.4,0.201880513131619,-0.075));
#1055=CARTESIAN_POINT('',(0.2,0.2,-0.36));
#1056=CARTESIAN_POINT('',(0.,0.,-0.36));
#1057=CARTESIAN_POINT('',(0.,0.1,-0.36));
#1058=CARTESIAN_POINT('',(-0.0352610961249766,0.1,-0.36));
#1059=CARTESIAN_POINT('',(-2.44929359829471E-017,0.2,0.));
#1060=CARTESIAN_POINT('',(-2.49209397658378E-017,0.203494916111231,-0.075));
#1061=CARTESIAN_POINT('',(-4.89858719658941E-017,0.4,-0.075));
#1062=CARTESIAN_POINT('',(-4.89858719658941E-017,0.4,0.));
#1063=CARTESIAN_POINT('',(-4.89858719658941E-017,0.4,-0.36));
#1064=CARTESIAN_POINT('',(0.,0.3,-0.36));
#1065=CARTESIAN_POINT('',(-2.77555756156289E-017,0.250961538461539,-0.114807692307692));
#1066=CARTESIAN_POINT('',(0.,0.25,-0.11));
#1067=CARTESIAN_POINT('',(-2.77555756156289E-017,0.2,-0.11));
#1068=CARTESIAN_POINT('',(0.,0.15,-0.11));
#1069=CARTESIAN_POINT('',(-2.77555756156289E-017,0.149038461538462,-0.114807692307692));
#1070=CARTESIAN_POINT('',(-2.53489435487285E-017,0.206989832222462,-0.075));
#1071=CARTESIAN_POINT('',(0.3,0.4,-0.075));
#1072=CARTESIAN_POINT('',(0.00999999999999995,0.425059497356415,-0.075));
#1073=CARTESIAN_POINT('',(0.00999999999999995,0.39,-0.075));
#1074=CARTESIAN_POINT('',(0.395135408379139,0.39,-0.075));
#1075=CARTESIAN_POINT('',(0.00999999999999997,0.206989832222462,-0.07));
#1076=CARTESIAN_POINT('',(0.01,-0.0110798329114914,-0.065));
#1077=CARTESIAN_POINT('',(0.00999999999999995,0.39,-0.065));
#1078=CARTESIAN_POINT('',(0.00999999999999995,0.39,-0.07));
#1079=CARTESIAN_POINT('',(-2.53489435487285E-017,0.206989832222462,-0.065));
#1080=CARTESIAN_POINT('',(0.00959846470505,0.39,-0.065));
#1081=CARTESIAN_POINT('',(-2.49209397658378E-017,0.203494916111231,-0.065));
#1082=CARTESIAN_POINT('',(-4.89858719658941E-017,0.4,-0.0650000000000001));
#1083=CARTESIAN_POINT('',(0.0999999999999999,0.4,-0.0650000000000001));
#1084=CARTESIAN_POINT('',(0.4,0.4,-0.065));
#1085=CARTESIAN_POINT('',(0.4,0.201880513131619,-0.065));
#1086=CARTESIAN_POINT('',(0.202366936542094,0.39,-0.07));
#1087=CARTESIAN_POINT('',(0.2,0.4,0.));
#1088=CARTESIAN_POINT('',(-4.89858719658941E-017,0.4,-0.36));
#1089=CARTESIAN_POINT('',(0.,0.,0.));
#1090=CARTESIAN_POINT('',(-4.89858719658941E-017,0.4,0.));
#1091=CARTESIAN_POINT('',(0.2,0.,0.));
#1092=CARTESIAN_POINT('',(0.4,0.,0.));
#1093=CARTESIAN_POINT('',(0.4,0.4,0.));
#1094=CARTESIAN_POINT('',(0.4,0.4,0.));
#1095=CARTESIAN_POINT('',(-0.270522192249953,0.275,-0.235));
#1096=CARTESIAN_POINT('',(-0.270522192249953,0.25,-0.11));
#1097=CARTESIAN_POINT('',(-0.0352610961249765,0.3,-0.36));
#1098=CARTESIAN_POINT('',(-0.270522192249953,0.125,-0.235));
#1099=CARTESIAN_POINT('',(-0.270522192249953,0.15,-0.11));
#1100=CARTESIAN_POINT('',(-0.270522192249953,0.2,-0.11));
#1101=CARTESIAN_POINT('',(-4.89858719658941E-017,0.4,0.));
#1102=CARTESIAN_POINT('',(0.2,0.2,0.));
#1103=CARTESIAN_POINT('',(-1.22464679914739E-018,0.0100000000000003,-0.0730904507637025));
#1104=CARTESIAN_POINT('',(-0.1,0.0200000000000002,-0.0730904507637025));
#1105=CARTESIAN_POINT('',(-0.1,0.0200000000000006,-0.0730904507637024));
#1106=CARTESIAN_POINT('',(-0.1,-2.42861286636753E-017,-0.0730904507637024));
#1107=CARTESIAN_POINT('',(1.15555796663234E-033,-1.04083408558608E-017,-0.0730904507637024));
#1108=CARTESIAN_POINT('',(1.15555796663234E-033,-1.04083408558608E-017,-0.0730904507637024));
#1109=CARTESIAN_POINT('',(-2.44929359829474E-018,0.0200000000000003,-0.0730904507637025));
#1110=CARTESIAN_POINT('',(-2.44929359829479E-018,0.0200000000000007,-0.0730904507637024));
#1111=CARTESIAN_POINT('',(-2.44929359829479E-018,0.0200000000000007,-0.0730904507637024));
#1112=CARTESIAN_POINT('',(-3.14521828873215E-032,2.56826563456662E-016,-0.221545225381851));
#1113=CARTESIAN_POINT('',(-0.1,2.43036264660942E-016,-0.0730904507637024));
#1114=CARTESIAN_POINT('',(-0.1,2.42861286636753E-016,-0.37));
#1115=CARTESIAN_POINT('',(-3.14414685734594E-032,2.56739074444567E-016,-0.37));
#1116=CARTESIAN_POINT('',(-3.14414685734594E-032,2.56739074444567E-016,-0.37));
#1117=CARTESIAN_POINT('',(-3.14628972011837E-032,2.56914052468756E-016,-0.0730904507637024));
#1118=CARTESIAN_POINT('',(-1.22464679914739E-018,0.0100000000000003,-0.37));
#1119=CARTESIAN_POINT('',(-0.1,0.0100000000000002,-0.37));
#1120=CARTESIAN_POINT('',(-0.1,0.0100000000000002,-0.38));
#1121=CARTESIAN_POINT('',(-1.22464679914739E-018,0.0100000000000003,-0.38));
#1122=CARTESIAN_POINT('',(-1.22464679914739E-018,0.0100000000000003,-0.38));
#1123=CARTESIAN_POINT('',(-1.22464679914739E-018,0.0100000000000003,-0.37));
#1124=CARTESIAN_POINT('',(-7.19874205127863E-018,0.058782189740672,-0.38));
#1125=CARTESIAN_POINT('',(-0.1,0.0100000000000002,-0.38));
#1126=CARTESIAN_POINT('',(-0.1,0.107564379481344,-0.38));
#1127=CARTESIAN_POINT('',(-1.31728373034099E-017,0.107564379481344,-0.38));
#1128=CARTESIAN_POINT('',(-1.31728373034099E-017,0.107564379481344,-0.38));
#1129=CARTESIAN_POINT('',(-1.22464679914739E-018,0.0100000000000003,-0.38));
#1130=CARTESIAN_POINT('',(-1.31728373034099E-017,0.107564379481344,-0.37));
#1131=CARTESIAN_POINT('',(-0.1,0.107564379481344,-0.37));
#1132=CARTESIAN_POINT('',(-0.1,0.117370186238253,-0.371961161351382));
#1133=CARTESIAN_POINT('',(-1.43737022892005E-017,0.117370186238253,-0.371961161351382));
#1134=CARTESIAN_POINT('',(-1.43737022892005E-017,0.117370186238253,-0.371961161351382));
#1135=CARTESIAN_POINT('',(-1.31728373034099E-017,0.107564379481344,-0.37));
#1136=CARTESIAN_POINT('',(-1.6819439642317E-017,0.137341147292651,-0.272106356079392));
#1137=CARTESIAN_POINT('',(-0.1,0.117370186238253,-0.371961161351382));
#1138=CARTESIAN_POINT('',(-0.1,0.157312108347049,-0.172251550807403));
#1139=CARTESIAN_POINT('',(-1.92651769954335E-017,0.157312108347049,-0.172251550807403));
#1140=CARTESIAN_POINT('',(-1.92651769954335E-017,0.157312108347049,-0.172251550807403));
#1141=CARTESIAN_POINT('',(-1.43737022892005E-017,0.117370186238253,-0.371961161351382));
#1142=CARTESIAN_POINT('',(-1.81016201411123E-017,0.147810945602564,-0.170351318258506));
#1143=CARTESIAN_POINT('',(-0.1,0.157312108347049,-0.172251550807403));
#1144=CARTESIAN_POINT('',(-0.1,0.138309782858078,-0.168451085709609));
#1145=CARTESIAN_POINT('',(-1.69380632867911E-017,0.138309782858078,-0.168451085709609));
#1146=CARTESIAN_POINT('',(-1.69380632867911E-017,0.138309782858078,-0.168451085709609));
#1147=CARTESIAN_POINT('',(-1.92651769954335E-017,0.157312108347049,-0.172251550807403));
#1148=CARTESIAN_POINT('',(-1.46907130193312E-017,0.119958775293901,-0.260206123530495));
#1149=CARTESIAN_POINT('',(-0.1,0.138309782858078,-0.168451085709609));
#1150=CARTESIAN_POINT('',(-0.1,0.101607767729723,-0.351961161351382));
#1151=CARTESIAN_POINT('',(-1.24433627518713E-017,0.101607767729723,-0.351961161351382));
#1152=CARTESIAN_POINT('',(-1.24433627518713E-017,0.101607767729723,-0.351961161351382));
#1153=CARTESIAN_POINT('',(-1.69380632867911E-017,0.138309782858078,-0.168451085709609));
#1154=CARTESIAN_POINT('',(-1.12424977660807E-017,0.0918019609728141,-0.35));
#1155=CARTESIAN_POINT('',(-0.1,0.0918019609728141,-0.35));
#1156=CARTESIAN_POINT('',(-0.1,0.0918019609728141,-0.36));
#1157=CARTESIAN_POINT('',(-1.12424977660807E-017,0.0918019609728141,-0.36));
#1158=CARTESIAN_POINT('',(-1.12424977660807E-017,0.0918019609728141,-0.36));
#1159=CARTESIAN_POINT('',(-1.12424977660807E-017,0.0918019609728141,-0.35));
#1160=CARTESIAN_POINT('',(-7.45821908176139E-018,0.0609009804864071,-0.36));
#1161=CARTESIAN_POINT('',(-0.1,0.0918019609728141,-0.36));
#1162=CARTESIAN_POINT('',(-0.1,0.03,-0.36));
#1163=CARTESIAN_POINT('',(-3.67394039744206E-018,0.03,-0.36));
#1164=CARTESIAN_POINT('',(-3.67394039744206E-018,0.03,-0.36));
#1165=CARTESIAN_POINT('',(-1.12424977660807E-017,0.0918019609728141,-0.36));
#1166=CARTESIAN_POINT('',(-3.67394039744206E-018,0.03,-0.35));
#1167=CARTESIAN_POINT('',(-0.1,0.03,-0.35));
#1168=CARTESIAN_POINT('',(-0.1,0.02,-0.35));
#1169=CARTESIAN_POINT('',(-2.44929359829471E-018,0.02,-0.35));
#1170=CARTESIAN_POINT('',(-2.44929359829471E-018,0.02,-0.35));
#1171=CARTESIAN_POINT('',(-3.67394039744206E-018,0.03,-0.35));
#1172=CARTESIAN_POINT('',(-2.44929359829475E-018,0.0200000000000003,-0.211545225381851));
#1173=CARTESIAN_POINT('',(-0.1,0.02,-0.35));
#1174=CARTESIAN_POINT('',(-2.44929359829471E-018,0.02,-0.35));
#1175=CARTESIAN_POINT('',(-0.1,0.058785852523268,-0.257020718103639));
#1176=CARTESIAN_POINT('',(-7.19919061277685E-018,0.058785852523268,-0.257020718103639));
#1177=CARTESIAN_POINT('CARTESIAN_POINT4',(0.12266040657588,0.0159312039613724,
-0.353784218278689));
#1178=CARTESIAN_POINT('CARTESIAN_POINT8',(0.,0.,0.));
#1179=CARTESIAN_POINT('CARTESIAN_POINT14',(0.24566040657588,0.0174834372707315,
-0.353784218278689));
#1180=CARTESIAN_POINT('CARTESIAN_POINT18',(0.,0.,0.));
#1181=CARTESIAN_POINT('CARTESIAN_POINT24',(0.49966040657588,0.0174834372707315,
-0.353784218278689));
#1182=CARTESIAN_POINT('CARTESIAN_POINT28',(0.,0.,0.));
#1183=PLANE('',#778);
#1184=PLANE('',#782);
#1185=PLANE('',#783);
#1186=PLANE('',#784);
#1187=PLANE('',#785);
#1188=PLANE('',#786);
#1189=PLANE('',#787);
#1190=PLANE('',#788);
#1191=PLANE('',#789);
#1192=PLANE('',#790);
#1193=PLANE('',#791);
#1194=PLANE('',#792);
#1195=PLANE('',#793);
#1196=PLANE('',#794);
#1197=PLANE('',#795);
#1198=PLANE('',#796);
#1199=PLANE('',#797);
#1200=PLANE('',#798);
#1201=PLANE('',#799);
#1202=PLANE('',#800);
#1203=PLANE('',#801);
#1204=PLANE('',#805);
#1205=PLANE('',#809);
#1206=PLANE('',#810);
#1207=PLANE('',#811);
#1208=PLANE('',#815);
#1209=PLANE('',#819);
#1210=PLANE('',#820);
#1211=PLANE('',#821);
#1212=CLOSED_SHELL('',(#740,#741,#742,#743,#744,#745,#746,#747,#748,#749,
#750,#751,#752,#753,#754,#755,#756,#757,#758,#759,#760,#761,#762,#763));
#1213=CLOSED_SHELL('',(#764,#765,#766,#767,#768,#769,#770,#771,#772,#773,
#774,#775,#776,#777));
#1214=MANIFOLD_SOLID_BREP('',#1212);
#1215=MANIFOLD_SOLID_BREP('',#1213);
#1216=ADVANCED_BREP_SHAPE_REPRESENTATION('Body-Yellow',(#1214),#114);
#1217=ADVANCED_BREP_SHAPE_REPRESENTATION('Pin',(#1215),#115);
ENDSEC;
END-ISO-10303-21;
