[3/16/2018 10:34 AM] Udder Started..... Waiting to be milked.
[3/16/2018 10:34 AM] Please browse to a valid output folder
[3/16/2018 10:35 AM] Starting to Milk info for ERJ-3EKF1003V
[3/16/2018 10:35 AM] Search on Base part number : ERJ-3EKF1003V resulted in 3 records returned
[3/16/2018 10:35 AM] Writing CSV Headers
[3/16/2018 10:35 AM] Processing part 0 of 3
[3/16/2018 10:35 AM] ---->Part Detected as Tape & Real
[3/16/2018 10:35 AM] Processing part 1 of 3
[3/16/2018 10:35 AM] ---->Part Detected as Cut Tape
[3/16/2018 10:35 AM] Processing part 2 of 3
[3/16/2018 10:35 AM] ---->Part Detected as [Digi-Reel®]   Discarding.....
[3/16/2018 10:35 AM] Finished Parsing Records
[3/16/2018 10:35 AM] Udder is now dry!
[3/16/2018 10:35 AM] Starting to Milk info for ERJ-3EKF1003V
[3/16/2018 10:35 AM] Search on Base part number : ERJ-3EKF1003V resulted in 3 records returned
[3/16/2018 10:35 AM] Writing CSV Headers
[3/16/2018 10:35 AM] Processing part 0 of 3
[3/16/2018 10:35 AM] ---->Part Detected as Tape & Real
[3/16/2018 10:35 AM] Processing part 1 of 3
[3/16/2018 10:35 AM] ---->Part Detected as Cut Tape
[3/16/2018 10:35 AM] Processing part 2 of 3
[3/16/2018 10:35 AM] ---->Part Detected as [Digi-Reel®]   Discarding.....
[3/16/2018 10:35 AM] Finished Parsing Records
[3/16/2018 10:35 AM] Udder is now dry!
[3/16/2018 10:35 AM] Starting to Milk info for Yageo RC 1%
[3/16/2018 10:35 AM] Search on Base part number : Yageo RC 1% resulted in 37192 records returned
[3/16/2018 10:35 AM] Writing CSV Headers
[3/16/2018 10:35 AM] Processing part 0 of 37192
[3/16/2018 10:35 AM] ---->Part Detected as Tape & Real
[3/16/2018 10:35 AM] Processing part 1 of 37192
[3/16/2018 10:35 AM] ---->Part Detected as Cut Tape
[3/16/2018 10:35 AM] Processing part 2 of 37192
[3/16/2018 10:35 AM] ---->Part Detected as [Digi-Reel®]   Discarding.....
[3/16/2018 10:35 AM] Processing part 3 of 37192
[3/16/2018 10:35 AM] ---->Part Detected as Tape & Real
[3/16/2018 10:35 AM] Processing part 4 of 37192
[3/16/2018 10:35 AM] ---->Part Detected as Cut Tape
[3/16/2018 10:35 AM] Processing part 5 of 37192
[3/16/2018 10:35 AM] ---->Part Detected as [Digi-Reel®]   Discarding.....
[3/16/2018 10:35 AM] Processing part 6 of 37192
[3/16/2018 10:35 AM] ---->Part Detected as Tape & Real
[3/16/2018 10:35 AM] Processing part 7 of 37192
[3/16/2018 10:35 AM] ---->Part Detected as Cut Tape
[3/16/2018 10:35 AM] Processing part 8 of 37192
[3/16/2018 10:35 AM] ---->Part Detected as [Digi-Reel®]   Discarding.....
[3/16/2018 10:35 AM] Processing part 9 of 37192
[3/16/2018 10:35 AM] ---->Part Detected as Tape & Real
[3/16/2018 10:35 AM] Processing part 10 of 37192
[3/16/2018 10:35 AM] ---->Part Detected as Cut Tape
[3/16/2018 10:35 AM] Processing part 11 of 37192
[3/16/2018 10:35 AM] ---->Part Detected as [Digi-Reel®]   Discarding.....
[3/16/2018 10:35 AM] Processing part 12 of 37192
[3/16/2018 10:35 AM] ---->Part Detected as Tape & Real
[3/16/2018 10:35 AM] Processing part 13 of 37192
[3/16/2018 10:35 AM] ---->Part Detected as Cut Tape
[3/16/2018 10:35 AM] Processing part 14 of 37192
[3/16/2018 10:35 AM] ---->Part Detected as [Digi-Reel®]   Discarding.....
[3/16/2018 10:35 AM] Processing part 15 of 37192
[3/16/2018 10:35 AM] ---->Part Detected as Tape & Real
[3/16/2018 10:35 AM] Processing part 16 of 37192
[3/16/2018 10:35 AM] ---->Part Detected as Cut Tape
[3/16/2018 10:35 AM] Processing part 17 of 37192
[3/16/2018 10:35 AM] ---->Part Detected as [Digi-Reel®]   Discarding.....
[3/16/2018 10:36 AM] Processing part 18 of 37192
[3/16/2018 10:36 AM] ---->Part Detected as Tape & Real
[3/16/2018 10:36 AM] Processing part 19 of 37192
[3/16/2018 10:36 AM] ---->Part Detected as Cut Tape
[3/16/2018 10:36 AM] Processing part 20 of 37192
[3/16/2018 10:36 AM] ---->Part Detected as [Digi-Reel®]   Discarding.....
[3/16/2018 10:36 AM] Processing part 21 of 37192
[3/16/2018 10:36 AM] ---->Part Detected as Tape & Real
[3/16/2018 10:36 AM] Processing part 22 of 37192
[3/16/2018 10:36 AM] ---->Part Detected as Tape & Real
[3/16/2018 10:36 AM] Processing part 23 of 37192
[3/16/2018 10:36 AM] ---->Part Detected as Tape & Real
[3/16/2018 10:36 AM] Processing part 24 of 37192
[3/16/2018 10:36 AM] ---->Part Detected as Cut Tape
[3/16/2018 10:36 AM] Processing part 25 of 37192
[3/16/2018 10:36 AM] ---->Part Detected as Tape & Real
[3/16/2018 10:36 AM] Processing part 26 of 37192
[3/16/2018 10:36 AM] ---->Part Detected as Cut Tape
[3/16/2018 10:36 AM] Processing part 27 of 37192
[3/16/2018 10:36 AM] ---->Part Detected as [Digi-Reel®]   Discarding.....
[3/16/2018 10:36 AM] Processing part 28 of 37192
[3/16/2018 10:36 AM] ---->Part Detected as Tape & Real
[3/16/2018 10:36 AM] Processing part 29 of 37192
[3/16/2018 10:36 AM] ---->Part Detected as Cut Tape
[3/16/2018 10:36 AM] Processing part 30 of 37192
[3/16/2018 10:36 AM] ---->Part Detected as [Digi-Reel®]   Discarding.....
[3/16/2018 10:36 AM] Processing part 31 of 37192
[3/16/2018 10:36 AM] ---->Part Detected as Tape & Real
[3/16/2018 10:36 AM] Processing part 32 of 37192
[3/16/2018 10:36 AM] ---->Part Detected as Cut Tape
[3/16/2018 10:36 AM] Processing part 33 of 37192
[3/16/2018 10:36 AM] ---->Part Detected as [Digi-Reel®]   Discarding.....
[3/16/2018 10:36 AM] Processing part 34 of 37192
[3/16/2018 10:36 AM] ---->Part Detected as Tape & Real
[3/16/2018 10:36 AM] Processing part 35 of 37192
[3/16/2018 10:36 AM] ---->Part Detected as Cut Tape
[3/16/2018 10:36 AM] Processing part 36 of 37192
[3/16/2018 10:36 AM] ---->Part Detected as [Digi-Reel®]   Discarding.....
[3/16/2018 10:36 AM] Processing part 37 of 37192
[3/16/2018 10:36 AM] ---->Part Detected as [Bulk]   Discarding.....
[3/16/2018 10:36 AM] Processing part 38 of 37192
[3/16/2018 10:36 AM] ---->Part Detected as Tape & Real
[3/16/2018 10:36 AM] Processing part 39 of 37192
[3/16/2018 10:36 AM] ---->Part Detected as Cut Tape
[3/16/2018 10:36 AM] Processing part 40 of 37192
[3/16/2018 10:36 AM] ---->Part Detected as [Digi-Reel®]   Discarding.....
[3/16/2018 10:36 AM] Processing part 41 of 37192
[3/16/2018 10:36 AM] ---->Part Detected as Tape & Real
[3/16/2018 10:36 AM] Processing part 42 of 37192
[3/16/2018 10:36 AM] ---->Part Detected as Cut Tape
[3/16/2018 10:36 AM] Processing part 43 of 37192
[3/16/2018 10:36 AM] ---->Part Detected as [Digi-Reel®]   Discarding.....
[3/16/2018 10:36 AM] Processing part 44 of 37192
[3/16/2018 10:36 AM] ---->Part Detected as Tape & Real
[3/16/2018 10:36 AM] Processing part 45 of 37192
[3/16/2018 10:36 AM] ---->Part Detected as Cut Tape
[3/16/2018 10:36 AM] Processing part 46 of 37192
[3/16/2018 10:36 AM] ---->Part Detected as [Digi-Reel®]   Discarding.....
[3/16/2018 10:36 AM] Processing part 47 of 37192
[3/16/2018 10:36 AM] ---->Part Detected as [Bulk]   Discarding.....
[3/16/2018 10:36 AM] Processing part 48 of 37192
[3/16/2018 10:36 AM] ---->Part Detected as [Notebook]   Discarding.....
[3/16/2018 10:36 AM] Processing part 49 of 37192
[3/16/2018 10:36 AM] ---->Part Detected as Tape & Real
[3/16/2018 10:36 AM] Processing part 50 of 37192
[3/16/2018 10:36 AM] ---->Part Detected as Cut Tape
[3/16/2018 10:36 AM] Processing part 51 of 37192
[3/16/2018 10:36 AM] ---->Part Detected as [Digi-Reel®]   Discarding.....
[3/16/2018 10:36 AM] Processing part 52 of 37192
[3/16/2018 10:36 AM] ---->Part Detected as Tape & Real
[3/16/2018 10:36 AM] Processing part 53 of 37192
[3/16/2018 10:36 AM] ---->Part Detected as Cut Tape
[3/16/2018 10:36 AM] Processing part 54 of 37192
[3/16/2018 10:36 AM] ---->Part Detected as [Digi-Reel®]   Discarding.....
[3/16/2018 10:36 AM] Processing part 55 of 37192
[3/16/2018 10:36 AM] ---->Part Detected as Tape & Real
[3/16/2018 10:36 AM] Processing part 56 of 37192
[3/16/2018 10:36 AM] ---->Part Detected as Cut Tape
[3/16/2018 10:36 AM] Processing part 57 of 37192
[3/16/2018 10:36 AM] ---->Part Detected as [Digi-Reel®]   Discarding.....
[3/16/2018 10:36 AM] Processing part 58 of 37192
[3/16/2018 10:36 AM] ---->Part Detected as Tape & Real
[3/16/2018 10:36 AM] Processing part 59 of 37192
[3/16/2018 10:36 AM] ---->Part Detected as Cut Tape
[3/16/2018 10:36 AM] Processing part 60 of 37192
[3/16/2018 10:36 AM] ---->Part Detected as [Digi-Reel®]   Discarding.....
[3/16/2018 10:36 AM] Processing part 61 of 37192
[3/16/2018 10:36 AM] ---->Part Detected as Tape & Real
[3/16/2018 10:36 AM] Processing part 62 of 37192
[3/16/2018 10:36 AM] ---->Part Detected as Cut Tape
[3/16/2018 10:36 AM] Processing part 63 of 37192
[3/16/2018 10:36 AM] ---->Part Detected as [Digi-Reel®]   Discarding.....
[3/16/2018 10:36 AM] Processing part 64 of 37192
[3/16/2018 10:36 AM] ---->Part Detected as Tape & Real
[3/16/2018 10:36 AM] Processing part 65 of 37192
[3/16/2018 10:36 AM] ---->Part Detected as Cut Tape
[3/16/2018 10:36 AM] Processing part 66 of 37192
[3/16/2018 10:36 AM] ---->Part Detected as [Digi-Reel®]   Discarding.....
[3/16/2018 10:36 AM] Processing part 67 of 37192
[3/16/2018 10:36 AM] ---->Part Detected as Tape & Real
[3/16/2018 10:36 AM] Processing part 68 of 37192
[3/16/2018 10:36 AM] ---->Part Detected as Cut Tape
[3/16/2018 10:36 AM] Processing part 69 of 37192
[3/16/2018 10:36 AM] ---->Part Detected as [Digi-Reel®]   Discarding.....
[3/16/2018 10:36 AM] Processing part 70 of 37192
[3/16/2018 10:36 AM] ---->Part Detected as Tape & Real
[3/16/2018 10:36 AM] Processing part 71 of 37192
[3/16/2018 10:36 AM] ---->Part Detected as Cut Tape
[3/16/2018 10:36 AM] Processing part 72 of 37192
[3/16/2018 10:36 AM] ---->Part Detected as [Digi-Reel®]   Discarding.....
[3/16/2018 10:36 AM] Processing part 73 of 37192
[3/16/2018 10:36 AM] ---->Part Detected as Tape & Real
[3/16/2018 10:36 AM] Processing part 74 of 37192
[3/16/2018 10:36 AM] ---->Part Detected as Cut Tape
[3/16/2018 10:36 AM] Processing part 75 of 37192
[3/16/2018 10:36 AM] ---->Part Detected as [Digi-Reel®]   Discarding.....
[3/16/2018 10:36 AM] Processing part 76 of 37192
[3/16/2018 10:36 AM] ---->Part Detected as Tape & Real
[3/16/2018 10:36 AM] Processing part 77 of 37192
[3/16/2018 10:36 AM] ---->Part Detected as Cut Tape
[3/16/2018 10:36 AM] Processing part 78 of 37192
[3/16/2018 10:36 AM] ---->Part Detected as [Digi-Reel®]   Discarding.....
[3/16/2018 10:36 AM] Processing part 79 of 37192
[3/16/2018 10:36 AM] ---->Part Detected as Tape & Real
[3/16/2018 10:36 AM] Processing part 80 of 37192
[3/16/2018 10:36 AM] ---->Part Detected as Cut Tape
[3/16/2018 10:36 AM] Processing part 81 of 37192
[3/16/2018 10:36 AM] ---->Part Detected as [Digi-Reel®]   Discarding.....
[3/16/2018 10:36 AM] Processing part 82 of 37192
[3/16/2018 10:36 AM] ---->Part Detected as Tape & Real
[3/16/2018 10:36 AM] Processing part 83 of 37192
[3/16/2018 10:36 AM] ---->Part Detected as Cut Tape
[3/16/2018 10:36 AM] Processing part 84 of 37192
[3/16/2018 10:36 AM] ---->Part Detected as [Digi-Reel®]   Discarding.....
[3/16/2018 10:36 AM] Processing part 85 of 37192
[3/16/2018 10:36 AM] ---->Part Detected as Tape & Real
[3/16/2018 10:36 AM] Processing part 86 of 37192
[3/16/2018 10:36 AM] ---->Part Detected as Cut Tape
[3/16/2018 10:36 AM] Processing part 87 of 37192
[3/16/2018 10:36 AM] ---->Part Detected as [Digi-Reel®]   Discarding.....
[3/16/2018 10:36 AM] Processing part 88 of 37192
[3/16/2018 10:36 AM] ---->Part Detected as Tape & Real
[3/16/2018 10:36 AM] Processing part 89 of 37192
[3/16/2018 10:36 AM] ---->Part Detected as Cut Tape
[3/16/2018 10:36 AM] Processing part 90 of 37192
[3/16/2018 10:36 AM] ---->Part Detected as [Digi-Reel®]   Discarding.....
[3/16/2018 10:36 AM] Processing part 91 of 37192
[3/16/2018 10:36 AM] ---->Part Detected as Tape & Real
[3/16/2018 10:36 AM] Processing part 92 of 37192
[3/16/2018 10:36 AM] ---->Part Detected as Cut Tape
[3/16/2018 10:36 AM] Processing part 93 of 37192
[3/16/2018 10:36 AM] ---->Part Detected as [Digi-Reel®]   Discarding.....
[3/16/2018 10:36 AM] Processing part 94 of 37192
[3/16/2018 10:36 AM] ---->Part Detected as Tape & Real
[3/16/2018 10:36 AM] Processing part 95 of 37192
[3/16/2018 10:36 AM] ---->Part Detected as Cut Tape
[3/16/2018 10:36 AM] Processing part 96 of 37192
[3/16/2018 10:36 AM] ---->Part Detected as [Digi-Reel®]   Discarding.....
[3/16/2018 10:36 AM] Processing part 97 of 37192
[3/16/2018 10:36 AM] ---->Part Detected as Tape & Real
[3/16/2018 10:36 AM] Processing part 98 of 37192
[3/16/2018 10:36 AM] ---->Part Detected as Cut Tape
[3/16/2018 10:36 AM] Processing part 99 of 37192
[3/16/2018 10:36 AM] ---->Part Detected as [Digi-Reel®]   Discarding.....
[3/16/2018 10:36 AM] Processing part 100 of 37192
[3/16/2018 10:36 AM] ---->Part Detected as Tape & Real
[3/16/2018 10:36 AM] Processing part 101 of 37192
[3/16/2018 10:36 AM] ---->Part Detected as Cut Tape
[3/16/2018 10:36 AM] Processing part 102 of 37192
[3/16/2018 10:36 AM] ---->Part Detected as [Digi-Reel®]   Discarding.....
[3/16/2018 10:36 AM] Processing part 103 of 37192
[3/16/2018 10:36 AM] ---->Part Detected as Tape & Real
[3/16/2018 10:36 AM] Processing part 104 of 37192
[3/16/2018 10:36 AM] ---->Part Detected as Cut Tape
[3/16/2018 10:36 AM] Processing part 105 of 37192
[3/16/2018 10:36 AM] ---->Part Detected as [Digi-Reel®]   Discarding.....
[3/16/2018 10:36 AM] Processing part 106 of 37192
[3/16/2018 10:36 AM] ---->Part Detected as Tape & Real
[3/16/2018 10:36 AM] Processing part 107 of 37192
[3/16/2018 10:36 AM] ---->Part Detected as Cut Tape
[3/16/2018 10:36 AM] Processing part 108 of 37192
[3/16/2018 10:36 AM] ---->Part Detected as [Digi-Reel®]   Discarding.....
[3/16/2018 10:36 AM] Processing part 109 of 37192
[3/16/2018 10:36 AM] ---->Part Detected as Tape & Real
[3/16/2018 10:36 AM] Processing part 110 of 37192
[3/16/2018 10:36 AM] ---->Part Detected as Cut Tape
[3/16/2018 10:36 AM] Processing part 111 of 37192
[3/16/2018 10:36 AM] ---->Part Detected as [Digi-Reel®]   Discarding.....
[3/16/2018 10:36 AM] Processing part 112 of 37192
[3/16/2018 10:36 AM] ---->Part Detected as Tape & Real
[3/16/2018 10:36 AM] Processing part 113 of 37192
[3/16/2018 10:36 AM] ---->Part Detected as Cut Tape
[3/16/2018 10:36 AM] Processing part 114 of 37192
[3/16/2018 10:36 AM] ---->Part Detected as [Digi-Reel®]   Discarding.....
[3/16/2018 10:36 AM] Processing part 115 of 37192
[3/16/2018 10:36 AM] ---->Part Detected as Tape & Real
[3/16/2018 10:36 AM] Processing part 116 of 37192
[3/16/2018 10:36 AM] ---->Part Detected as Cut Tape
[3/16/2018 10:36 AM] Processing part 117 of 37192
[3/16/2018 10:36 AM] ---->Part Detected as [Digi-Reel®]   Discarding.....
[3/16/2018 10:36 AM] Processing part 118 of 37192
[3/16/2018 10:36 AM] ---->Part Detected as Tape & Real
[3/16/2018 10:36 AM] Processing part 119 of 37192
[3/16/2018 10:36 AM] ---->Part Detected as Cut Tape
[3/16/2018 10:36 AM] Processing part 120 of 37192
[3/16/2018 10:36 AM] ---->Part Detected as [Digi-Reel®]   Discarding.....
[3/16/2018 10:36 AM] Processing part 121 of 37192
[3/16/2018 10:36 AM] ---->Part Detected as Tape & Real
[3/16/2018 10:36 AM] Processing part 122 of 37192
[3/16/2018 10:36 AM] ---->Part Detected as Cut Tape
[3/16/2018 10:36 AM] Processing part 123 of 37192
[3/16/2018 10:36 AM] ---->Part Detected as [Digi-Reel®]   Discarding.....
[3/16/2018 10:36 AM] Processing part 124 of 37192
[3/16/2018 10:36 AM] ---->Part Detected as Tape & Real
[3/16/2018 10:36 AM] Processing part 125 of 37192
[3/16/2018 10:36 AM] ---->Part Detected as Cut Tape
[3/16/2018 10:36 AM] Processing part 126 of 37192
[3/16/2018 10:36 AM] ---->Part Detected as [Digi-Reel®]   Discarding.....
[3/16/2018 10:36 AM] Processing part 127 of 37192
[3/16/2018 10:36 AM] ---->Part Detected as Tape & Real
[3/16/2018 10:36 AM] Processing part 128 of 37192
[3/16/2018 10:36 AM] ---->Part Detected as Cut Tape
[3/16/2018 10:36 AM] Processing part 129 of 37192
[3/16/2018 10:36 AM] ---->Part Detected as [Digi-Reel®]   Discarding.....
[3/16/2018 10:36 AM] Processing part 130 of 37192
[3/16/2018 10:36 AM] ---->Part Detected as Tape & Real
[3/16/2018 10:36 AM] Processing part 131 of 37192
[3/16/2018 10:36 AM] ---->Part Detected as Cut Tape
[3/16/2018 10:36 AM] Processing part 132 of 37192
[3/16/2018 10:36 AM] ---->Part Detected as [Digi-Reel®]   Discarding.....
[3/16/2018 10:36 AM] Processing part 133 of 37192
[3/16/2018 10:36 AM] ---->Part Detected as Tape & Real
[3/16/2018 10:36 AM] Processing part 134 of 37192
[3/16/2018 10:36 AM] ---->Part Detected as Cut Tape
[3/16/2018 10:36 AM] Processing part 135 of 37192
[3/16/2018 10:36 AM] ---->Part Detected as [Digi-Reel®]   Discarding.....
[3/16/2018 10:36 AM] Processing part 136 of 37192
[3/16/2018 10:36 AM] ---->Part Detected as Tape & Real
[3/16/2018 10:36 AM] Processing part 137 of 37192
[3/16/2018 10:36 AM] ---->Part Detected as Cut Tape
[3/16/2018 10:36 AM] Processing part 138 of 37192
[3/16/2018 10:36 AM] ---->Part Detected as [Digi-Reel®]   Discarding.....
[3/16/2018 10:36 AM] Processing part 139 of 37192
[3/16/2018 10:36 AM] ---->Part Detected as Tape & Real
[3/16/2018 10:36 AM] Processing part 140 of 37192
[3/16/2018 10:36 AM] ---->Part Detected as Cut Tape
[3/16/2018 10:36 AM] Processing part 141 of 37192
[3/16/2018 10:36 AM] ---->Part Detected as [Digi-Reel®]   Discarding.....
[3/16/2018 10:36 AM] Processing part 142 of 37192
[3/16/2018 10:36 AM] ---->Part Detected as Tape & Real
[3/16/2018 10:36 AM] Processing part 143 of 37192
[3/16/2018 10:36 AM] ---->Part Detected as Cut Tape
[3/16/2018 10:36 AM] Processing part 144 of 37192
[3/16/2018 10:36 AM] ---->Part Detected as [Digi-Reel®]   Discarding.....
[3/16/2018 10:36 AM] Processing part 145 of 37192
[3/16/2018 10:36 AM] ---->Part Detected as Tape & Real
[3/16/2018 10:36 AM] Processing part 146 of 37192
[3/16/2018 10:36 AM] ---->Part Detected as Cut Tape
[3/16/2018 10:36 AM] Processing part 147 of 37192
[3/16/2018 10:36 AM] ---->Part Detected as [Digi-Reel®]   Discarding.....
[3/16/2018 10:36 AM] Processing part 148 of 37192
[3/16/2018 10:36 AM] ---->Part Detected as Tape & Real
[3/16/2018 10:36 AM] Processing part 149 of 37192
[3/16/2018 10:36 AM] ---->Part Detected as Cut Tape
[3/16/2018 10:36 AM] Processing part 150 of 37192
[3/16/2018 10:36 AM] ---->Part Detected as [Digi-Reel®]   Discarding.....
[3/16/2018 10:36 AM] Processing part 151 of 37192
[3/16/2018 10:36 AM] ---->Part Detected as Tape & Real
[3/16/2018 10:36 AM] Processing part 152 of 37192
[3/16/2018 10:36 AM] ---->Part Detected as Cut Tape
[3/16/2018 10:36 AM] Processing part 153 of 37192
[3/16/2018 10:36 AM] ---->Part Detected as [Digi-Reel®]   Discarding.....
[3/16/2018 10:36 AM] Processing part 154 of 37192
[3/16/2018 10:36 AM] ---->Part Detected as Tape & Real
[3/16/2018 10:36 AM] Processing part 155 of 37192
[3/16/2018 10:36 AM] ---->Part Detected as Cut Tape
[3/16/2018 10:36 AM] Processing part 156 of 37192
[3/16/2018 10:36 AM] ---->Part Detected as [Digi-Reel®]   Discarding.....
[3/16/2018 10:36 AM] Processing part 157 of 37192
[3/16/2018 10:36 AM] ---->Part Detected as Tape & Real
[3/16/2018 10:36 AM] Processing part 158 of 37192
[3/16/2018 10:36 AM] ---->Part Detected as Cut Tape
[3/16/2018 10:36 AM] Processing part 159 of 37192
[3/16/2018 10:36 AM] ---->Part Detected as [Digi-Reel®]   Discarding.....
[3/16/2018 10:36 AM] Processing part 160 of 37192
[3/16/2018 10:36 AM] ---->Part Detected as Tape & Real
[3/16/2018 10:36 AM] Processing part 161 of 37192
[3/16/2018 10:36 AM] ---->Part Detected as Cut Tape
[3/16/2018 10:36 AM] Processing part 162 of 37192
[3/16/2018 10:36 AM] ---->Part Detected as [Digi-Reel®]   Discarding.....
[3/16/2018 10:36 AM] Processing part 163 of 37192
[3/16/2018 10:36 AM] ---->Part Detected as Tape & Real
[3/16/2018 10:36 AM] Processing part 164 of 37192
[3/16/2018 10:36 AM] ---->Part Detected as Cut Tape
[3/16/2018 10:36 AM] Processing part 165 of 37192
[3/16/2018 10:36 AM] ---->Part Detected as [Digi-Reel®]   Discarding.....
